<?xml version="1.0" ?>
<!-- =================================================================================== -->
<!-- |    This document was autogenerated by xacro from yogi.xacro                     | -->
<!-- |    EDITING THIS FILE BY HAND IS NOT RECOMMENDED                                 | -->
<!-- =================================================================================== -->
<robot name="yogi" xmlns:xacro="http://www.ros.org/wiki/xacro">
  <!-- Some pretty colors -->
  <material name="blue">
    <color rgba="0.0 0.0 0.8 1.0"/>
  </material>
  <material name="green">
    <color rgba="0.0 0.8 0.0 1.0"/>
  </material>
  <material name="grey">
    <color rgba="0.7 0.7 0.7 1.0"/>
  </material>
  <material name="grey2">
    <color rgba="0.9 0.9 0.9 1.0"/>
  </material>
  <material name="red">
    <color rgba="0.8 0.0 0.0 1.0"/>
  </material>
  <material name="orange">
    <color rgba="1.0 0.5 0.0 1.0"/>
  </material>
  <material name="white">
    <color rgba="1.0 1.0 1.0 1.0"/>
  </material>
  <material name="black">
    <color rgba="0.05 0.05 0.05 1.0"/>
  </material>
  <!-- ROTOR DYNAMICS MACROS -->
  <!-- First order dynamics -->
  <!--
    MACROS FOR CONVERSION FUNCTIONS BETWEEN ROTOR'S ANG. VELOCITY AND
    THRUSTER FORCE
  -->
  <!-- THRUSTER MODULE MACROS  -->
  <!--
    Thruster model with first order dynamic model for the rotor dynamics
    and a proportional non-linear steady-state conversion from the rotor's
    angular velocity to output thrust force
  -->
  <!-- base_link according to ROS conventions: x forward, z up -->
  <link name="yogi/base_link">
    <inertial>
      <mass value="1862.87"/>
      <origin xyz="0 0 0"/>
      <inertia ixx="525.39" ixy="1.44" ixz="33.41" iyy="794.20" iyz="2.6" izz="691.23"/>
    </inertial>
    <visual>
      <origin rpy="0 0 0" xyz="0 0 0"/>
      <geometry>
        <mesh filename="file:///home/bsb/uuv_ws/src/yogi_gazebo/yogi_description/mesh/frame.dae" scale="1 1 1"/>
      </geometry>
    </visual>
    <!-- bottom plate -->
    <collision>
      <origin rpy="0 0 0" xyz="0 0 -0.75"/>
      <geometry>
        <box size="2.56 1.50 0.10"/>
      </geometry>
    </collision>
    <!-- top plate -->
    <collision>
      <origin rpy="0 0 0" xyz="0 0 0.60"/>
      <geometry>
        <box size="2.56 1.50 0.40"/>
      </geometry>
    </collision>
    <!-- left / right sides -->
    <collision>
      <origin rpy="0 0 0" xyz="-0.20 0.70 -0.15"/>
      <geometry>
        <box size="2.20 0.10 1.10"/>
      </geometry>
    </collision>
    <collision>
      <origin rpy="0 0 0" xyz="-0.20 -0.70 -0.15"/>
      <geometry>
        <box size="2.20 0.10 1.10"/>
      </geometry>
    </collision>
  </link>
  <joint name="yogi/thruster_0_joint" type="continuous">
    <origin rpy="0.0 0.0 0.0" xyz="0 0 0"/>
    <axis xyz="1 0 0"/>
    <parent link="yogi/base_link"/>
    <child link="yogi/thruster_0"/>
  </joint>
  <link name="yogi/thruster_0">
    <inertial>
      <mass value="0.001"/>
      <origin rpy="0 0 0" xyz="0 0 0"/>
      <inertia ixx="0.0" ixy="0.0" ixz="0.0" iyy="0.0" iyz="0.0" izz="0.0"/>
    </inertial>
    <visual>
      <origin rpy="0 0 0" xyz="0 0 0"/>
      <geometry>
        <mesh filename="file:///home/bsb/uuv_ws/src/uuv_simulator/uuv_descriptions/models/rexrov/mesh/prop.dae" scale="1 1 1"/>
      </geometry>
    </visual>
    <collision>
      <!-- todo: gazebo needs a collision volume or it will ignore the pose of
           the joint that leads to this link (and assume it to be the identity) -->
      <geometry>
        <cylinder length="0.000001" radius="0.000001"/>
      </geometry>
      <origin rpy="0 0 0" xyz="0 0 0"/>
    </collision>
  </link>
  <gazebo>
    <plugin filename="libthruster_ros_plugin.so" name="yogi_0_thruster_model">
      <linkName>yogi/thruster_0</linkName>
      <jointName>yogi/thruster_0_joint</jointName>
      <thrusterID>0</thrusterID>
      <dynamics>
        <type>FirstOrder</type>
        <timeConstant>0.05</timeConstant>
      </dynamics>
      <conversion>
        <type>Basic</type>
        <rotorConstant>0.00031</rotorConstant>
      </conversion>
    </plugin>
  </gazebo>
  <gazebo reference="yogi/thruster_0">
    <selfCollide>false</selfCollide>
  </gazebo>
  <link name="yogi/thruster_body_0">
    <pose>0 0 3 0 0 0</pose>
    <inertial>
      <mass value="1"/>
      <origin xyz="0 0 0"/>
      <inertia ixx="0.1" ixy="0" ixz="0" iyy="0.1" iyz="0" izz="0.1"/>
    </inertial>
    <visual>
      <origin rpy="0 0 0" xyz="0 0 0"/>
      <geometry>
        <mesh filename="file:///home/bsb/uuv_ws/src/yogi_gazebo/yogi_description/mesh/thruster.dae" scale="1 1 1"/>
      </geometry>
    </visual>
    <collision>
      <!-- todo: gazebo needs a collision volume or it will ignore the pose of
           the joint that leads to this link (and assume it to be the identity) -->
      <geometry>
        <cylinder length="0.000001" radius="0.000001"/>
      </geometry>
      <origin rpy="0 0 0" xyz="0 0 0"/>
    </collision>
  </link>
  <joint name="my_joint" type="fixed">
    <origin rpy="0 0 3.1416" xyz="0 0 3"/>
    <parent link="yogi/base_link"/>
    <child link="yogi/thruster_body_0"/>
  </joint>
</robot>

