<?xml version="1.0" encoding="utf-8"?>
<COLLADA xmlns="http://www.collada.org/2005/11/COLLADASchema" version="1.4.1" xmlns:xsi="http://www.w3.org/2001/XMLSchema-instance">
  <asset>
    <contributor>
      <author>Blender User</author>
      <authoring_tool>Blender 2.79.0 commit date:2017-09-11, commit time:10:43, hash:5bd8ac9abfa</authoring_tool>
    </contributor>
    <created>2018-09-06T14:13:37</created>
    <modified>2018-09-06T14:13:37</modified>
    <unit name="meter" meter="1"/>
    <up_axis>Z_UP</up_axis>
  </asset>
  <library_cameras>
    <camera id="Camera-camera" name="Camera">
      <optics>
        <technique_common>
          <perspective>
            <xfov sid="xfov">49.13434</xfov>
            <aspect_ratio>1.777778</aspect_ratio>
            <znear sid="znear">0.1</znear>
            <zfar sid="zfar">100</zfar>
          </perspective>
        </technique_common>
      </optics>
      <extra>
        <technique profile="blender">
          <shiftx sid="shiftx" type="float">0</shiftx>
          <shifty sid="shifty" type="float">0</shifty>
          <YF_dofdist sid="YF_dofdist" type="float">0</YF_dofdist>
        </technique>
      </extra>
    </camera>
  </library_cameras>
  <library_lights>
    <light id="Lamp-light" name="Lamp">
      <technique_common>
        <point>
          <color sid="color">1 1 1</color>
          <constant_attenuation>1</constant_attenuation>
          <linear_attenuation>0</linear_attenuation>
          <quadratic_attenuation>0.00111109</quadratic_attenuation>
        </point>
      </technique_common>
      <extra>
        <technique profile="blender">
          <type sid="type" type="int">0</type>
          <flag sid="flag" type="int">0</flag>
          <mode sid="mode" type="int">8192</mode>
          <gamma sid="blender_gamma" type="float">1</gamma>
          <red sid="red" type="float">1</red>
          <green sid="green" type="float">1</green>
          <blue sid="blue" type="float">1</blue>
          <shadow_r sid="blender_shadow_r" type="float">0</shadow_r>
          <shadow_g sid="blender_shadow_g" type="float">0</shadow_g>
          <shadow_b sid="blender_shadow_b" type="float">0</shadow_b>
          <energy sid="blender_energy" type="float">1</energy>
          <dist sid="blender_dist" type="float">29.99998</dist>
          <spotsize sid="spotsize" type="float">75</spotsize>
          <spotblend sid="spotblend" type="float">0.15</spotblend>
          <halo_intensity sid="blnder_halo_intensity" type="float">1</halo_intensity>
          <att1 sid="att1" type="float">0</att1>
          <att2 sid="att2" type="float">1</att2>
          <falloff_type sid="falloff_type" type="int">2</falloff_type>
          <clipsta sid="clipsta" type="float">1.000799</clipsta>
          <clipend sid="clipend" type="float">30.002</clipend>
          <bias sid="bias" type="float">1</bias>
          <soft sid="soft" type="float">3</soft>
          <compressthresh sid="compressthresh" type="float">0.04999995</compressthresh>
          <bufsize sid="bufsize" type="int">2880</bufsize>
          <samp sid="samp" type="int">3</samp>
          <buffers sid="buffers" type="int">1</buffers>
          <filtertype sid="filtertype" type="int">0</filtertype>
          <bufflag sid="bufflag" type="int">0</bufflag>
          <buftype sid="buftype" type="int">2</buftype>
          <ray_samp sid="ray_samp" type="int">1</ray_samp>
          <ray_sampy sid="ray_sampy" type="int">1</ray_sampy>
          <ray_sampz sid="ray_sampz" type="int">1</ray_sampz>
          <ray_samp_type sid="ray_samp_type" type="int">0</ray_samp_type>
          <area_shape sid="area_shape" type="int">1</area_shape>
          <area_size sid="area_size" type="float">0.1</area_size>
          <area_sizey sid="area_sizey" type="float">0.1</area_sizey>
          <area_sizez sid="area_sizez" type="float">1</area_sizez>
          <adapt_thresh sid="adapt_thresh" type="float">0.000999987</adapt_thresh>
          <ray_samp_method sid="ray_samp_method" type="int">1</ray_samp_method>
          <shadhalostep sid="shadhalostep" type="int">0</shadhalostep>
          <sun_effect_type sid="sun_effect_type" type="int">0</sun_effect_type>
          <skyblendtype sid="skyblendtype" type="int">1</skyblendtype>
          <horizon_brightness sid="horizon_brightness" type="float">1</horizon_brightness>
          <spread sid="spread" type="float">1</spread>
          <sun_brightness sid="sun_brightness" type="float">1</sun_brightness>
          <sun_size sid="sun_size" type="float">1</sun_size>
          <backscattered_light sid="backscattered_light" type="float">1</backscattered_light>
          <sun_intensity sid="sun_intensity" type="float">1</sun_intensity>
          <atm_turbidity sid="atm_turbidity" type="float">2</atm_turbidity>
          <atm_extinction_factor sid="atm_extinction_factor" type="float">1</atm_extinction_factor>
          <atm_distance_factor sid="atm_distance_factor" type="float">1</atm_distance_factor>
          <skyblendfac sid="skyblendfac" type="float">1</skyblendfac>
          <sky_exposure sid="sky_exposure" type="float">1</sky_exposure>
          <sky_colorspace sid="sky_colorspace" type="int">0</sky_colorspace>
        </technique>
      </extra>
    </light>
    <light id="Lamp_001-light" name="Lamp.001">
      <technique_common>
        <point>
          <color sid="color">1 1 1</color>
          <constant_attenuation>1</constant_attenuation>
          <linear_attenuation>0</linear_attenuation>
          <quadratic_attenuation>0.00111109</quadratic_attenuation>
        </point>
      </technique_common>
      <extra>
        <technique profile="blender">
          <type sid="type" type="int">0</type>
          <flag sid="flag" type="int">0</flag>
          <mode sid="mode" type="int">8192</mode>
          <gamma sid="blender_gamma" type="float">1</gamma>
          <red sid="red" type="float">1</red>
          <green sid="green" type="float">1</green>
          <blue sid="blue" type="float">1</blue>
          <shadow_r sid="blender_shadow_r" type="float">0</shadow_r>
          <shadow_g sid="blender_shadow_g" type="float">0</shadow_g>
          <shadow_b sid="blender_shadow_b" type="float">0</shadow_b>
          <energy sid="blender_energy" type="float">1</energy>
          <dist sid="blender_dist" type="float">29.99998</dist>
          <spotsize sid="spotsize" type="float">75</spotsize>
          <spotblend sid="spotblend" type="float">0.15</spotblend>
          <halo_intensity sid="blnder_halo_intensity" type="float">1</halo_intensity>
          <att1 sid="att1" type="float">0</att1>
          <att2 sid="att2" type="float">1</att2>
          <falloff_type sid="falloff_type" type="int">2</falloff_type>
          <clipsta sid="clipsta" type="float">1.000799</clipsta>
          <clipend sid="clipend" type="float">30.002</clipend>
          <bias sid="bias" type="float">1</bias>
          <soft sid="soft" type="float">3</soft>
          <compressthresh sid="compressthresh" type="float">0.04999995</compressthresh>
          <bufsize sid="bufsize" type="int">2880</bufsize>
          <samp sid="samp" type="int">3</samp>
          <buffers sid="buffers" type="int">1</buffers>
          <filtertype sid="filtertype" type="int">0</filtertype>
          <bufflag sid="bufflag" type="int">0</bufflag>
          <buftype sid="buftype" type="int">2</buftype>
          <ray_samp sid="ray_samp" type="int">1</ray_samp>
          <ray_sampy sid="ray_sampy" type="int">1</ray_sampy>
          <ray_sampz sid="ray_sampz" type="int">1</ray_sampz>
          <ray_samp_type sid="ray_samp_type" type="int">0</ray_samp_type>
          <area_shape sid="area_shape" type="int">1</area_shape>
          <area_size sid="area_size" type="float">0.1</area_size>
          <area_sizey sid="area_sizey" type="float">0.1</area_sizey>
          <area_sizez sid="area_sizez" type="float">1</area_sizez>
          <adapt_thresh sid="adapt_thresh" type="float">9.99987e-4</adapt_thresh>
          <ray_samp_method sid="ray_samp_method" type="int">1</ray_samp_method>
          <shadhalostep sid="shadhalostep" type="int">0</shadhalostep>
          <sun_effect_type sid="sun_effect_type" type="int">0</sun_effect_type>
          <skyblendtype sid="skyblendtype" type="int">1</skyblendtype>
          <horizon_brightness sid="horizon_brightness" type="float">1</horizon_brightness>
          <spread sid="spread" type="float">1</spread>
          <sun_brightness sid="sun_brightness" type="float">1</sun_brightness>
          <sun_size sid="sun_size" type="float">1</sun_size>
          <backscattered_light sid="backscattered_light" type="float">1</backscattered_light>
          <sun_intensity sid="sun_intensity" type="float">1</sun_intensity>
          <atm_turbidity sid="atm_turbidity" type="float">2</atm_turbidity>
          <atm_extinction_factor sid="atm_extinction_factor" type="float">1</atm_extinction_factor>
          <atm_distance_factor sid="atm_distance_factor" type="float">1</atm_distance_factor>
          <skyblendfac sid="skyblendfac" type="float">1</skyblendfac>
          <sky_exposure sid="sky_exposure" type="float">1</sky_exposure>
          <sky_colorspace sid="sky_colorspace" type="int">0</sky_colorspace>
        </technique>
      </extra>
    </light>
  </library_lights>
  <library_images/>
  <library_effects>
    <effect id="Shape_025-effect">
      <profile_COMMON>
        <technique sid="common">
          <phong>
            <emission>
              <color sid="emission">0 0 0 1</color>
            </emission>
            <ambient>
              <color sid="ambient">0 0 0 1</color>
            </ambient>
            <diffuse>
              <color sid="diffuse">0.8 0.8 0.8 1</color>
            </diffuse>
            <specular>
              <color sid="specular">0.5 0.5 0.5 1</color>
            </specular>
            <shininess>
              <float sid="shininess">103</float>
            </shininess>
            <index_of_refraction>
              <float sid="index_of_refraction">1</float>
            </index_of_refraction>
          </phong>
        </technique>
      </profile_COMMON>
    </effect>
  </library_effects>
  <library_materials>
    <material id="Shape_025-material" name="Shape_025">
      <instance_effect url="#Shape_025-effect"/>
    </material>
  </library_materials>
  <library_geometries>
    <geometry id="ShapeIndexedFaceSet-mesh" name="ShapeIndexedFaceSet">
      <mesh>
        <source id="ShapeIndexedFaceSet-mesh-positions">
          <float_array id="ShapeIndexedFaceSet-mesh-positions-array" count="2253">0 0 0 0.9960479 1.604701 0.09346181 1.014755 1.604116 0.1108224 1.031512 1.602597 0.1301153 1.046407 1.600443 0.1514505 1.05909 1.598002 0.1744583 1.069275 1.595626 0.198736 1.076744 1.593644 0.2238612 1.081351 1.592317 0.2493505 1.083057 1.591806 0.2746873 1.081893 1.592156 0.2999473 1.077719 1.59337 0.3254299 1.070463 1.595325 0.3505481 1.060235 1.597754 0.3747582 1.047282 1.600293 0.3976228 1.031994 1.602539 0.4187558 1.014887 1.604108 0.4378356 0.9960479 1.604701 0.4550701 0.9960479 1.604701 0.71 1.035206 1.602134 0.71 1.073694 1.594478 0.71 1.110853 1.581864 0.71 1.146048 1.564508 0.71 1.178676 1.542707 0.71 1.20818 1.516833 0.71 1.234054 1.487329 0.71 1.255856 1.454701 0.71 1.273212 1.419506 0.71 1.285826 1.382346 0.71 1.293481 1.343858 0.71 1.296048 1.304701 0.71 1.296048 1.304701 -0.71 1.293481 1.343858 -0.71 1.285826 1.382346 -0.71 1.273212 1.419506 -0.71 1.255856 1.454701 -0.71 1.234054 1.487329 -0.71 1.20818 1.516833 -0.71 1.178676 1.542707 -0.71 1.146048 1.564508 -0.71 1.110853 1.581864 -0.71 1.073694 1.594478 -0.71 1.035206 1.602134 -0.71 0.9960479 1.604701 -0.71 0.9960479 1.604701 -0.4550701 1.014792 1.604114 -0.4379312 1.032003 1.602538 -0.418744 1.047322 1.600286 -0.3975598 1.060268 1.597746 -0.3746901 1.070481 1.59532 -0.3504999 1.077723 1.593368 -0.3254107 1.081894 1.592156 -0.2999426 1.083057 1.591806 -0.2746568 1.081345 1.592319 -0.249302 1.076737 1.593646 -0.2238312 1.069275 1.595626 -0.1987375 1.059103 1.597999 -0.1744832 1.046422 1.600441 -0.1514756 1.031499 1.602598 -0.1300989 1.01465 1.604122 -0.1107156 0.9960479 1.604701 -0.09346181 0.9960479 1.604701 -0.71 1.035206 1.602134 -0.71 1.073694 1.594478 -0.71 1.110853 1.581864 -0.71 1.146048 1.564508 -0.71 1.178676 1.542707 -0.71 1.20818 1.516833 -0.71 1.234054 1.487329 -0.71 1.255856 1.454701 -0.71 1.273212 1.419506 -0.71 1.285826 1.382346 -0.71 1.293481 1.343858 -0.71 1.296048 1.304701 -0.71 1.296048 1.194701 -0.71 -1.263952 1.194701 -0.71 -1.263952 1.604701 -0.71 1.296048 1.304701 -0.71 1.296048 1.304701 0.71 1.296048 1.194701 0.71 1.296048 1.194701 -0.71 0.9960479 1.604701 -0.4550701 0.9960479 1.604701 -0.71 -1.263952 1.604701 -0.71 -1.263952 1.604701 0.71 0.9960479 1.604701 0.71 0.9960479 1.604701 0.4550701 0.9661098 1.604701 0.4762121 0.9332485 1.604701 0.492442 0.8982634 1.604701 0.5033651 0.8620054 1.604701 0.5087156 0.8253564 1.604701 0.5083636 0.7892078 1.604701 0.5023173 0.7544391 1.604701 0.490724 0.7218957 1.604701 0.4738658 0.6923694 1.604701 0.4521524 0.6665782 1.604701 0.4261123 0.6451495 1.604701 0.3963787 0.6286047 1.604701 0.3636749 0.617346 1.604701 0.3287963 0.6116474 1.604701 0.2925913 0.6116474 1.604701 0.2559406 0.617346 1.604701 0.2197357 0.6286047 1.604701 0.1848571 0.6451495 1.604701 0.1521533 0.6665782 1.604701 0.1224197 0.6923694 1.604701 0.09637951 0.7218957 1.604701 0.07466626 0.7544391 1.604701 0.05780792 0.7892078 1.604701 0.04621464 0.8253564 1.604701 0.04016846 0.8620054 1.604701 0.03981626 0.8982634 1.604701 0.04516685 0.9332485 1.604701 0.05608987 0.9661098 1.604701 0.07231986 0.9960479 1.604701 0.09346181 0.9960479 1.604701 -0.09346181 0.9661098 1.604701 -0.07231986 0.9332485 1.604701 -0.05608987 0.8982634 1.604701 -0.04516685 0.8620054 1.604701 -0.03981626 0.8253564 1.604701 -0.04016846 0.7892078 1.604701 -0.04621464 0.7544391 1.604701 -0.05780792 0.7218957 1.604701 -0.07466626 0.6923694 1.604701 -0.09637951 0.6665782 1.604701 -0.1224197 0.6451495 1.604701 -0.1521533 0.6286047 1.604701 -0.1848571 0.617346 1.604701 -0.2197357 0.6116474 1.604701 -0.2559406 0.6116474 1.604701 -0.2925913 0.617346 1.604701 -0.3287963 0.6286047 1.604701 -0.3636749 0.6451495 1.604701 -0.3963787 0.6665782 1.604701 -0.4261123 0.6923694 1.604701 -0.4521524 0.7218957 1.604701 -0.4738658 0.7544391 1.604701 -0.490724 0.7892078 1.604701 -0.5023173 0.8253564 1.604701 -0.5083636 0.8620054 1.604701 -0.5087156 0.8982634 1.604701 -0.5033651 0.9332485 1.604701 -0.492442 0.9661098 1.604701 -0.4762121 -1.03412 1.604701 -0.1335177 -1.053821 1.604701 -0.1646897 -1.068403 1.604701 -0.1985599 -1.077507 1.604701 -0.2342941 -1.080909 1.604701 -0.2710127 -1.078525 1.604701 -0.3078113 -1.070414 1.604701 -0.3437839 -1.056775 1.604701 -0.3780448 -1.037945 1.604701 -0.4097503 -1.014387 1.604701 -0.4381197 -0.9866802 1.604701 -0.4624545 -0.9555082 1.604701 -0.4821555 -0.9216381 1.604701 -0.4967375 -0.8859038 1.604701 -0.5058416 -0.8491852 1.604701 -0.5092435 -0.8123866 1.604701 -0.5068594 -0.776414 1.604701 -0.4987482 -0.7421531 1.604701 -0.4851095 -0.7104476 1.604701 -0.466279 -0.6820782 1.604701 -0.4427206 -0.6577434 1.604701 -0.4150143 -0.6380425 1.604701 -0.3838422 -0.6234604 1.604701 -0.3499721 -0.6143563 1.604701 -0.3142378 -0.6109545 1.604701 -0.2775193 -0.6133385 1.604701 -0.2407206 -0.6214498 1.604701 -0.204748 -0.6350885 1.604701 -0.1704871 -0.6539189 1.604701 -0.1387817 -0.6774774 1.604701 -0.1104122 -0.7051837 1.604701 -0.08607745 -0.7363557 1.604701 -0.0663765 -0.7702258 1.604701 -0.05179435 -0.8059601 1.604701 -0.04269033 -0.8426786 1.604701 -0.03928852 -0.8794773 1.604701 -0.04167246 -0.9154499 1.604701 -0.0497837 -0.9497108 1.604701 -0.06342256 -0.9814162 1.604701 -0.08225297 -1.009786 1.604701 -0.1058114 -1.03412 1.604701 0.1335177 -1.009786 1.604701 0.1058114 -0.9814162 1.604701 0.08225297 -0.9497108 1.604701 0.06342256 -0.9154499 1.604701 0.0497837 -0.8794773 1.604701 0.04167246 -0.8426786 1.604701 0.03928852 -0.8059601 1.604701 0.04269033 -0.7702258 1.604701 0.05179435 -0.7363557 1.604701 0.0663765 -0.7051837 1.604701 0.08607745 -0.6774774 1.604701 0.1104122 -0.6539189 1.604701 0.1387817 -0.6350885 1.604701 0.1704871 -0.6214498 1.604701 0.204748 -0.6133385 1.604701 0.2407206 -0.6109545 1.604701 0.2775193 -0.6143563 1.604701 0.3142378 -0.6234604 1.604701 0.3499721 -0.6380425 1.604701 0.3838422 -0.6577434 1.604701 0.4150143 -0.6820782 1.604701 0.4427206 -0.7104476 1.604701 0.466279 -0.7421531 1.604701 0.4851095 -0.776414 1.604701 0.4987482 -0.8123866 1.604701 0.5068594 -0.8491852 1.604701 0.5092435 -0.8859038 1.604701 0.5058416 -0.9216381 1.604701 0.4967375 -0.9555082 1.604701 0.4821555 -0.9866802 1.604701 0.4624545 -1.014387 1.604701 0.4381197 -1.037945 1.604701 0.4097503 -1.056775 1.604701 0.3780448 -1.070414 1.604701 0.3437839 -1.078525 1.604701 0.3078113 -1.080909 1.604701 0.2710127 -1.077507 1.604701 0.2342941 -1.068403 1.604701 0.1985599 -1.053821 1.604701 0.1646897 1.296048 1.304701 0.71 1.293481 1.343858 0.71 1.285826 1.382346 0.71 1.273212 1.419506 0.71 1.255856 1.454701 0.71 1.234054 1.487329 0.71 1.20818 1.516833 0.71 1.178676 1.542707 0.71 1.146048 1.564508 0.71 1.110853 1.581864 0.71 1.073694 1.594478 0.71 1.035206 1.602134 0.71 0.9960479 1.604701 0.71 -1.263952 1.604701 0.71 -1.263952 1.194701 0.71 1.296048 1.194701 0.71 0.6789131 1.194701 0.365161 0.6818064 1.194701 0.3283989 0.6904149 1.194701 0.292542 0.7045266 1.194701 0.2584732 0.7237941 1.194701 0.2270314 0.747743 1.194701 0.1989909 0.7757836 1.194701 0.175042 0.8072254 1.194701 0.1557744 0.8412941 1.194701 0.1416627 0.877151 1.194701 0.1330541 0.9139131 1.194701 0.130161 0.9506752 1.194701 0.1330541 0.9865321 1.194701 0.1416627 1.020601 1.194701 0.1557744 1.052043 1.194701 0.175042 1.080083 1.194701 0.1989909 1.104032 1.194701 0.2270314 1.1233 1.194701 0.2584732 1.137411 1.194701 0.292542 1.14602 1.194701 0.3283989 1.148913 1.194701 0.365161 1.14602 1.194701 0.4019231 1.137411 1.194701 0.43778 1.1233 1.194701 0.4718487 1.104032 1.194701 0.5032905 1.080083 1.194701 0.5313311 1.052043 1.194701 0.55528 1.020601 1.194701 0.5745475 0.9865321 1.194701 0.5886593 0.9506752 1.194701 0.5972678 0.9139131 1.194701 0.600161 0.877151 1.194701 0.5972678 0.8412941 1.194701 0.5886593 0.8072254 1.194701 0.5745475 0.7757836 1.194701 0.55528 0.747743 1.194701 0.5313311 0.7237941 1.194701 0.5032905 0.7045266 1.194701 0.4718487 0.6904149 1.194701 0.43778 0.6818064 1.194701 0.4019231 0.9960479 1.604701 0.4550701 1.014887 1.604108 0.4378356 1.031994 1.602539 0.4187558 1.047282 1.600293 0.3976228 1.060235 1.597754 0.3747582 1.070463 1.595325 0.3505481 1.077719 1.59337 0.3254299 1.081893 1.592156 0.2999473 1.083057 1.591806 0.2746873 1.081351 1.592317 0.2493505 1.076744 1.593644 0.2238612 1.069275 1.595626 0.198736 1.05909 1.598002 0.1744583 1.046407 1.600443 0.1514505 1.031512 1.602597 0.1301153 1.014755 1.604116 0.1108224 0.9960479 1.604701 0.09346181 0.9661098 1.604701 0.07231986 0.9332485 1.604701 0.05608987 0.8982634 1.604701 0.04516685 0.8620054 1.604701 0.03981626 0.8253564 1.604701 0.04016846 0.7892078 1.604701 0.04621464 0.7544391 1.604701 0.05780792 0.7218957 1.604701 0.07466626 0.6923694 1.604701 0.09637951 0.6665782 1.604701 0.1224197 0.6451495 1.604701 0.1521533 0.6286047 1.604701 0.1848571 0.617346 1.604701 0.2197357 0.6116474 1.604701 0.2559406 0.6116474 1.604701 0.2925913 0.617346 1.604701 0.3287963 0.6286047 1.604701 0.3636749 0.6451495 1.604701 0.3963787 0.6665782 1.604701 0.4261123 0.6923694 1.604701 0.4521524 0.7218957 1.604701 0.4738658 0.7544391 1.604701 0.490724 0.7892078 1.604701 0.5023173 0.8253564 1.604701 0.5083636 0.8620054 1.604701 0.5087156 0.8982634 1.604701 0.5033651 0.9332485 1.604701 0.492442 0.9661098 1.604701 0.4762121 0.6451495 1.604701 0.3963787 0.7237941 1.194701 0.5032905 0.6789131 1.194701 -0.365161 0.6818064 1.194701 -0.4019231 0.6904149 1.194701 -0.43778 0.7045266 1.194701 -0.4718487 0.7237941 1.194701 -0.5032905 0.747743 1.194701 -0.5313311 0.7757836 1.194701 -0.55528 0.8072254 1.194701 -0.5745475 0.8412941 1.194701 -0.5886593 0.877151 1.194701 -0.5972678 0.9139131 1.194701 -0.600161 0.9506752 1.194701 -0.5972678 0.9865321 1.194701 -0.5886593 1.020601 1.194701 -0.5745475 1.052043 1.194701 -0.55528 1.080083 1.194701 -0.5313311 1.104032 1.194701 -0.5032905 1.1233 1.194701 -0.4718487 1.137411 1.194701 -0.43778 1.14602 1.194701 -0.4019231 1.148913 1.194701 -0.365161 1.14602 1.194701 -0.3283989 1.137411 1.194701 -0.292542 1.1233 1.194701 -0.2584732 1.104032 1.194701 -0.2270314 1.080083 1.194701 -0.1989909 1.052043 1.194701 -0.175042 1.020601 1.194701 -0.1557744 0.9865321 1.194701 -0.1416627 0.9506752 1.194701 -0.1330541 0.9139131 1.194701 -0.130161 0.877151 1.194701 -0.1330541 0.8412941 1.194701 -0.1416627 0.8072254 1.194701 -0.1557744 0.7757836 1.194701 -0.175042 0.747743 1.194701 -0.1989909 0.7237941 1.194701 -0.2270314 0.7045266 1.194701 -0.2584732 0.6904149 1.194701 -0.292542 0.6818064 1.194701 -0.3283989 0.9960479 1.604701 -0.09346181 1.01465 1.604122 -0.1107156 1.031499 1.602598 -0.1300989 1.046422 1.600441 -0.1514756 1.059103 1.597999 -0.1744832 1.069275 1.595626 -0.1987375 1.076737 1.593646 -0.2238312 1.081345 1.592319 -0.249302 1.083057 1.591806 -0.2746568 1.081894 1.592156 -0.2999426 1.077723 1.593368 -0.3254107 1.070481 1.59532 -0.3504999 1.060268 1.597746 -0.3746901 1.047322 1.600286 -0.3975598 1.032003 1.602538 -0.418744 1.014792 1.604114 -0.4379312 0.9960479 1.604701 -0.4550701 0.9661098 1.604701 -0.4762121 0.9332485 1.604701 -0.492442 0.8982634 1.604701 -0.5033651 0.8620054 1.604701 -0.5087156 0.8253564 1.604701 -0.5083636 0.7892078 1.604701 -0.5023173 0.7544391 1.604701 -0.490724 0.7218957 1.604701 -0.4738658 0.6923694 1.604701 -0.4521524 0.6665782 1.604701 -0.4261123 0.6451495 1.604701 -0.3963787 0.6286047 1.604701 -0.3636749 0.617346 1.604701 -0.3287963 0.6116474 1.604701 -0.2925913 0.6116474 1.604701 -0.2559406 0.617346 1.604701 -0.2197357 0.6286047 1.604701 -0.1848571 0.6451495 1.604701 -0.1521533 0.6665782 1.604701 -0.1224197 0.6923694 1.604701 -0.09637951 0.7218957 1.604701 -0.07466626 0.7544391 1.604701 -0.05780792 0.7892078 1.604701 -0.04621464 0.8253564 1.604701 -0.04016846 0.8620054 1.604701 -0.03981626 0.8982634 1.604701 -0.04516685 0.9332485 1.604701 -0.05608987 0.9661098 1.604701 -0.07231986 0.747743 1.194701 -0.5313311 0.6665782 1.604701 -0.4261123 -0.6789133 1.194701 0.365161 -0.6818066 1.194701 0.4019231 -0.690415 1.194701 0.43778 -0.7045268 1.194701 0.4718487 -0.7237944 1.194701 0.5032905 -0.7477432 1.194701 0.5313311 -0.7757838 1.194701 0.55528 -0.8072255 1.194701 0.5745475 -0.8412943 1.194701 0.5886593 -0.8771512 1.194701 0.5972678 -0.9139133 1.194701 0.600161 -0.9506754 1.194701 0.5972678 -0.9865323 1.194701 0.5886593 -1.020601 1.194701 0.5745475 -1.052043 1.194701 0.55528 -1.080083 1.194701 0.5313311 -1.104032 1.194701 0.5032905 -1.1233 1.194701 0.4718487 -1.137412 1.194701 0.43778 -1.14602 1.194701 0.4019231 -1.148913 1.194701 0.365161 -1.14602 1.194701 0.3283989 -1.137412 1.194701 0.292542 -1.1233 1.194701 0.2584732 -1.104032 1.194701 0.2270314 -1.102102 1.194701 0.2244127 -1.080083 1.194701 0.1989909 -1.052043 1.194701 0.175042 -1.020601 1.194701 0.1557744 -0.9865323 1.194701 0.1416627 -0.9506754 1.194701 0.1330541 -0.9139133 1.194701 0.130161 -0.8771512 1.194701 0.1330541 -0.8412943 1.194701 0.1416627 -0.8072255 1.194701 0.1557744 -0.7757838 1.194701 0.175042 -0.7477432 1.194701 0.1989909 -0.7237944 1.194701 0.2270314 -0.7045268 1.194701 0.2584732 -0.690415 1.194701 0.292542 -0.6818066 1.194701 0.3283989 -1.03412 1.604701 0.1335177 -1.053821 1.604701 0.1646897 -1.068403 1.604701 0.1985599 -1.077507 1.604701 0.2342941 -1.080909 1.604701 0.2710127 -1.078525 1.604701 0.3078113 -1.070414 1.604701 0.3437839 -1.056775 1.604701 0.3780448 -1.037945 1.604701 0.4097503 -1.014387 1.604701 0.4381197 -0.9866802 1.604701 0.4624545 -0.9555082 1.604701 0.4821555 -0.9216381 1.604701 0.4967375 -0.8859038 1.604701 0.5058416 -0.8491852 1.604701 0.5092435 -0.8123866 1.604701 0.5068594 -0.776414 1.604701 0.4987482 -0.7421531 1.604701 0.4851095 -0.7104476 1.604701 0.466279 -0.6820782 1.604701 0.4427206 -0.6577434 1.604701 0.4150143 -0.6380425 1.604701 0.3838422 -0.6234604 1.604701 0.3499721 -0.6143563 1.604701 0.3142378 -0.6109545 1.604701 0.2775193 -0.6133385 1.604701 0.2407206 -0.6214498 1.604701 0.204748 -0.6350885 1.604701 0.1704871 -0.6539189 1.604701 0.1387817 -0.6774774 1.604701 0.1104122 -0.7051837 1.604701 0.08607745 -0.7363557 1.604701 0.0663765 -0.7702258 1.604701 0.05179435 -0.8059601 1.604701 0.04269033 -0.8426786 1.604701 0.03928852 -0.8794773 1.604701 0.04167246 -0.9154499 1.604701 0.0497837 -0.9497108 1.604701 0.06342256 -0.9814162 1.604701 0.08225297 -1.009786 1.604701 0.1058114 -1.03412 1.604701 0.1335177 -1.102102 1.194701 0.2244127 -0.6789133 1.194701 -0.365161 -0.6818066 1.194701 -0.3283989 -0.690415 1.194701 -0.292542 -0.7045268 1.194701 -0.2584732 -0.7237944 1.194701 -0.2270314 -0.7477432 1.194701 -0.1989909 -0.7757838 1.194701 -0.175042 -0.8072255 1.194701 -0.1557744 -0.8412943 1.194701 -0.1416627 -0.8771512 1.194701 -0.1330541 -0.9139133 1.194701 -0.130161 -0.9506754 1.194701 -0.1330541 -0.9865323 1.194701 -0.1416627 -1.020601 1.194701 -0.1557744 -1.052043 1.194701 -0.175042 -1.080083 1.194701 -0.1989909 -1.102102 1.194701 -0.2244127 -1.104032 1.194701 -0.2270314 -1.1233 1.194701 -0.2584732 -1.137412 1.194701 -0.292542 -1.14602 1.194701 -0.3283989 -1.148913 1.194701 -0.365161 -1.14602 1.194701 -0.4019231 -1.137412 1.194701 -0.43778 -1.1233 1.194701 -0.4718487 -1.104032 1.194701 -0.5032905 -1.080083 1.194701 -0.5313311 -1.052043 1.194701 -0.55528 -1.020601 1.194701 -0.5745475 -0.9865323 1.194701 -0.5886593 -0.9506754 1.194701 -0.5972678 -0.9139133 1.194701 -0.600161 -0.8771512 1.194701 -0.5972678 -0.8412943 1.194701 -0.5886593 -0.8072255 1.194701 -0.5745475 -0.7757838 1.194701 -0.55528 -0.7477432 1.194701 -0.5313311 -0.7237944 1.194701 -0.5032905 -0.7045268 1.194701 -0.4718487 -0.690415 1.194701 -0.43778 -0.6818066 1.194701 -0.4019231 -1.03412 1.604701 -0.1335177 -1.009786 1.604701 -0.1058114 -0.9814162 1.604701 -0.08225297 -0.9497108 1.604701 -0.06342256 -0.9154499 1.604701 -0.0497837 -0.8794773 1.604701 -0.04167246 -0.8426786 1.604701 -0.03928852 -0.8059601 1.604701 -0.04269033 -0.7702258 1.604701 -0.05179435 -0.7363557 1.604701 -0.0663765 -0.7051837 1.604701 -0.08607745 -0.6774774 1.604701 -0.1104122 -0.6539189 1.604701 -0.1387817 -0.6350885 1.604701 -0.1704871 -0.6214498 1.604701 -0.204748 -0.6133385 1.604701 -0.2407206 -0.6109545 1.604701 -0.2775193 -0.6143563 1.604701 -0.3142378 -0.6234604 1.604701 -0.3499721 -0.6380425 1.604701 -0.3838422 -0.6577434 1.604701 -0.4150143 -0.6820782 1.604701 -0.4427206 -0.7104476 1.604701 -0.466279 -0.7421531 1.604701 -0.4851095 -0.776414 1.604701 -0.4987482 -0.8123866 1.604701 -0.5068594 -0.8491852 1.604701 -0.5092435 -0.8859038 1.604701 -0.5058416 -0.9216381 1.604701 -0.4967375 -0.9555082 1.604701 -0.4821555 -0.9866802 1.604701 -0.4624545 -1.014387 1.604701 -0.4381197 -1.037945 1.604701 -0.4097503 -1.056775 1.604701 -0.3780448 -1.070414 1.604701 -0.3437839 -1.078525 1.604701 -0.3078113 -1.080909 1.604701 -0.2710127 -1.077507 1.604701 -0.2342941 -1.068403 1.604701 -0.1985599 -1.053821 1.604701 -0.1646897 -1.102102 1.194701 -0.2244127 -1.03412 1.604701 -0.1335177 0.6789131 1.194701 0.365161 0.6818064 1.194701 0.4019231 0.6904149 1.194701 0.43778 0.7045266 1.194701 0.4718487 0.7237941 1.194701 0.5032905 0.747743 1.194701 0.5313311 0.7757836 1.194701 0.55528 0.8072254 1.194701 0.5745475 0.8412941 1.194701 0.5886593 0.877151 1.194701 0.5972678 0.9139131 1.194701 0.600161 0.9506752 1.194701 0.5972678 0.9865321 1.194701 0.5886593 1.020601 1.194701 0.5745475 1.052043 1.194701 0.55528 1.080083 1.194701 0.5313311 1.104032 1.194701 0.5032905 1.1233 1.194701 0.4718487 1.137411 1.194701 0.43778 1.14602 1.194701 0.4019231 1.148913 1.194701 0.365161 1.14602 1.194701 0.3283989 1.137411 1.194701 0.292542 1.1233 1.194701 0.2584732 1.104032 1.194701 0.2270314 1.080083 1.194701 0.1989909 1.052043 1.194701 0.175042 1.020601 1.194701 0.1557744 0.9865321 1.194701 0.1416627 0.9506752 1.194701 0.1330541 0.9139131 1.194701 0.130161 0.877151 1.194701 0.1330541 0.8412941 1.194701 0.1416627 0.8072254 1.194701 0.1557744 0.7757836 1.194701 0.175042 0.747743 1.194701 0.1989909 0.7237941 1.194701 0.2270314 0.7045266 1.194701 0.2584732 0.6904149 1.194701 0.292542 0.6818064 1.194701 0.3283989 0.6789131 1.194701 -0.365161 0.6818064 1.194701 -0.3283989 0.6904149 1.194701 -0.292542 0.7045266 1.194701 -0.2584732 0.7237941 1.194701 -0.2270314 0.747743 1.194701 -0.1989909 0.7757836 1.194701 -0.175042 0.8072254 1.194701 -0.1557744 0.8412941 1.194701 -0.1416627 0.877151 1.194701 -0.1330541 0.9139131 1.194701 -0.130161 0.9506752 1.194701 -0.1330541 0.9865321 1.194701 -0.1416627 1.020601 1.194701 -0.1557744 1.052043 1.194701 -0.175042 1.080083 1.194701 -0.1989909 1.104032 1.194701 -0.2270314 1.1233 1.194701 -0.2584732 1.137411 1.194701 -0.292542 1.14602 1.194701 -0.3283989 1.148913 1.194701 -0.365161 1.14602 1.194701 -0.4019231 1.137411 1.194701 -0.43778 1.1233 1.194701 -0.4718487 1.104032 1.194701 -0.5032905 1.080083 1.194701 -0.5313311 1.052043 1.194701 -0.55528 1.020601 1.194701 -0.5745475 0.9865321 1.194701 -0.5886593 0.9506752 1.194701 -0.5972678 0.9139131 1.194701 -0.600161 0.877151 1.194701 -0.5972678 0.8412941 1.194701 -0.5886593 0.8072254 1.194701 -0.5745475 0.7757836 1.194701 -0.55528 0.747743 1.194701 -0.5313311 0.7237941 1.194701 -0.5032905 0.7045266 1.194701 -0.4718487 0.6904149 1.194701 -0.43778 0.6818064 1.194701 -0.4019231 -0.6789133 1.194701 0.365161 -0.6818066 1.194701 0.3283989 -0.690415 1.194701 0.292542 -0.7045268 1.194701 0.2584732 -0.7237944 1.194701 0.2270314 -0.7477432 1.194701 0.1989909 -0.7757838 1.194701 0.175042 -0.8072255 1.194701 0.1557744 -0.8412943 1.194701 0.1416627 -0.8771512 1.194701 0.1330541 -0.9139133 1.194701 0.130161 -0.9506754 1.194701 0.1330541 -0.9865323 1.194701 0.1416627 -1.020601 1.194701 0.1557744 -1.052043 1.194701 0.175042 -1.080083 1.194701 0.1989909 -1.102102 1.194701 0.2244127 -1.104032 1.194701 0.2270314 -1.1233 1.194701 0.2584732 -1.137412 1.194701 0.292542 -1.14602 1.194701 0.3283989 -1.148913 1.194701 0.365161 -1.14602 1.194701 0.4019231 -1.137412 1.194701 0.43778 -1.1233 1.194701 0.4718487 -1.104032 1.194701 0.5032905 -1.080083 1.194701 0.5313311 -1.052043 1.194701 0.55528 -1.020601 1.194701 0.5745475 -0.9865323 1.194701 0.5886593 -0.9506754 1.194701 0.5972678 -0.9139133 1.194701 0.600161 -0.8771512 1.194701 0.5972678 -0.8412943 1.194701 0.5886593 -0.8072255 1.194701 0.5745475 -0.7757838 1.194701 0.55528 -0.7477432 1.194701 0.5313311 -0.7237944 1.194701 0.5032905 -0.7045268 1.194701 0.4718487 -0.690415 1.194701 0.43778 -0.6818066 1.194701 0.4019231 -0.6789133 1.194701 -0.365161 -0.6818066 1.194701 -0.4019231 -0.690415 1.194701 -0.43778 -0.7045268 1.194701 -0.4718487 -0.7237944 1.194701 -0.5032905 -0.7477432 1.194701 -0.5313311 -0.7757838 1.194701 -0.55528 -0.8072255 1.194701 -0.5745475 -0.8412943 1.194701 -0.5886593 -0.8771512 1.194701 -0.5972678 -0.9139133 1.194701 -0.600161 -0.9506754 1.194701 -0.5972678 -0.9865323 1.194701 -0.5886593 -1.020601 1.194701 -0.5745475 -1.052043 1.194701 -0.55528 -1.080083 1.194701 -0.5313311 -1.104032 1.194701 -0.5032905 -1.1233 1.194701 -0.4718487 -1.137412 1.194701 -0.43778 -1.14602 1.194701 -0.4019231 -1.148913 1.194701 -0.365161 -1.14602 1.194701 -0.3283989 -1.137412 1.194701 -0.292542 -1.1233 1.194701 -0.2584732 -1.104032 1.194701 -0.2270314 -1.102102 1.194701 -0.2244127 -1.080083 1.194701 -0.1989909 -1.052043 1.194701 -0.175042 -1.020601 1.194701 -0.1557744 -0.9865323 1.194701 -0.1416627 -0.9506754 1.194701 -0.1330541 -0.9139133 1.194701 -0.130161 -0.8771512 1.194701 -0.1330541 -0.8412943 1.194701 -0.1416627 -0.8072255 1.194701 -0.1557744 -0.7757838 1.194701 -0.175042 -0.7477432 1.194701 -0.1989909 -0.7237944 1.194701 -0.2270314 -0.7045268 1.194701 -0.2584732 -0.690415 1.194701 -0.292542 -0.6818066 1.194701 -0.3283989 -1.263952 1.194701 0.71 -1.263952 1.194701 -0.71 1.296048 1.194701 -0.71 1.296048 1.194701 0.71 -1.263952 1.194701 -0.71 -1.263952 1.194701 0.71 -1.263952 1.604701 0.71 -1.263952 1.604701 -0.71</float_array>
          <technique_common>
            <accessor source="#ShapeIndexedFaceSet-mesh-positions-array" count="751" stride="3">
              <param name="X" type="float"/>
              <param name="Y" type="float"/>
              <param name="Z" type="float"/>
            </accessor>
          </technique_common>
        </source>
        <source id="ShapeIndexedFaceSet-mesh-normals">
          <float_array id="ShapeIndexedFaceSet-mesh-normals-array" count="1548">0.03111028 0.999516 0 0.03124856 0.9995117 1.34826e-5 0.09006959 0.9959356 -1.68879e-5 0.09027785 0.9959166 0 0.1431264 0.9897045 -3.80522e-6 0.1430563 0.9897146 0 0.1889927 0.9819785 2.85618e-6 0.1890925 0.9819594 -1.36526e-6 0.227188 0.973851 0 0.2271789 0.9738531 0 0.2564858 0.966548 0 0.2564652 0.9665535 0 0.2767521 0.9609414 0 0.276775 0.9609348 8.97825e-7 0.2869716 0.9579391 0 0.2869552 0.957944 0 0.3367819 0.9415827 0 0.3367871 0.9415808 0 0.4422865 0.8968739 0 0.442283 0.8968755 0 0.5555633 0.8314743 0 0.6593399 0.7518451 0 0.6593441 0.7518413 0 0.7518416 0.6593438 0 0.7518458 0.659339 0 0.8314599 0.555585 0 0.8314619 0.555582 0 0.8968766 0.4422808 0 0.9469308 0.3214378 0 0.9807877 0.1950782 0 0.9807894 0.19507 0 0.9978581 0.06541687 0 0.3165865 0.9485626 0.001449704 0.3214444 0.9469279 0.001064896 0.2801937 0.9599436 1.66591e-4 0.259958 0.96562 -6.15281e-5 0.2315328 0.9728271 2.0945e-4 0.1953194 0.9807382 0.001742601 0.1950965 0.9807826 0.001762568 0.1450434 0.9894254 -2.23824e-4 0.09174698 0.9957824 3.71426e-4 0.06541556 0.9978554 0.002353668 0.03146529 0.9995049 0 0.3214442 0.946928 -0.001101613 0.3001391 0.9538953 -5.99876e-4 0.09160494 0.9957954 -3.74306e-4 0.1451385 0.9894114 2.23772e-4 0.1950962 0.9807826 -0.001765251 0.1954708 0.9807081 -0.001730024 0.2315816 0.9728155 -2.09751e-4 0.06541597 0.9978553 -0.002353489 0.03130036 0.9995101 0 0.2600398 0.9655979 6.29873e-5 0.2799372 0.9600184 -1.61957e-4 0 0 -1 -1.87129e-6 0 -1 -8.54364e-7 0 -1 5.72371e-6 0 -1 9.3477e-7 0 -1 1.28625e-6 0 -1 -3.13356e-6 0 -1 1 0 0 0 1 0 0 1 -6.13256e-6 0 1 9.9876e-7 0 1 -5.2182e-6 0 1 -1.86912e-6 0 1 -1.95971e-6 0 1 -5.08599e-6 0 1 5.2182e-6 0 1 -4.9938e-7 0 1 6.13256e-6 0 1 -4.65753e-6 0 1 -8.97957e-7 0 1 -3.04949e-6 0 1 7.14474e-6 0 1 -1.41854e-6 0 1 1.20649e-5 0 1 -1.46057e-5 0 1 7.33583e-6 0 1 -3.42651e-6 0 1 7.13694e-6 0 1 -1.10433e-5 0 1 1.08012e-5 0 1 -7.90909e-6 0 1 7.92219e-6 0 1 -1.07296e-5 0 1 5.58241e-6 0 1 -5.58241e-6 0 1 1.07296e-5 0 1 -7.92219e-6 0 1 7.90909e-6 0 1 -1.08012e-5 0 1 1.10433e-5 0 1 -7.13694e-6 0 1 3.42651e-6 0 1 -7.33583e-6 0 1 1.46057e-5 0 1 -1.20649e-5 0 1 1.41854e-6 0 1 1.54485e-6 0 1 -9.5263e-6 0 1 3.04949e-6 0 1 1.79591e-6 0 1 6.00103e-6 0 1 -1.28175e-6 0 1 -2.906e-7 0 1 -5.47596e-7 0 1 -5.65336e-7 0 1 4.85731e-6 0 1 -4.85731e-6 0 1 4.26972e-6 0 1 5.47596e-7 0 1 -1.65752e-6 0 1 1.28175e-6 0 1 -3.37557e-6 0 1 7.65896e-6 0 0 1 -3.13356e-6 0 1 1.28625e-6 0 1 9.3477e-7 0 1 5.72371e-6 0 1 -8.54364e-7 0 1 -1.87129e-6 0 1 -3.18152e-7 0 1 -0.7539917 0.02107763 0.6565457 -0.6785666 0.04955178 0.7328656 -0.6481854 0.06248086 0.7589149 -0.5748377 0.08345973 0.8140002 -0.5196893 0.1035503 0.8480568 -0.4394804 0.1227129 0.8898307 -0.378822 0.1416511 0.9145649 -0.2942659 0.1584691 0.9424941 -0.2298098 0.1758123 0.9572239 -0.143332 0.1898818 0.9712883 -0.07678687 0.2052743 0.9756876 0.009380996 0.216314 0.9762789 0.07636409 0.2294713 0.9703152 0.160255 0.2373088 0.9581248 0.2261517 0.248025 0.9419869 0.3060635 0.2525694 0.9178965 0.3694509 0.2606865 0.8919353 0.4439163 0.2619113 0.856937 0.5034842 0.2673208 0.8216102 0.5712192 0.2652423 0.7767594 0.625715 0.2678618 0.7326192 0.6855737 0.2625305 0.6790188 0.7337799 0.2623046 0.6267085 0.7847054 0.2538014 0.5655284 0.8254112 0.2507032 0.5058106 0.866421 0.2391414 0.4383218 0.8984119 0.2331808 0.372133 0.9286064 0.2187216 0.2997518 0.9506953 0.2099616 0.2282424 0.9692994 0.1928279 0.152565 0.9803783 0.1813981 0.07715785 0.9868075 0.1618983 0 0.9859356 0.1480205 -0.07759529 0.9798965 0.126551 -0.1542326 0.966409 0.1105573 -0.2320149 0.9479896 0.08760666 -0.3060081 0.921617 0.0699411 -0.3817464 0.8913635 0.04608291 -0.4509408 0.8523235 0.02729254 -0.5223025 0.8112649 0.003156125 -0.5846703 0.7603081 -0.0161339 -0.6493623 0.7099288 -0.03990858 -0.7031419 0.6483158 -0.05903303 -0.7590796 0.5904548 -0.08182895 -0.8029118 0.5198697 -0.1001316 -0.8483568 0.4565675 -0.1214117 -0.8813657 0.3790084 -0.1382744 -0.9150043 0.312367 -0.1575974 -0.9367978 0.2299451 -0.1724904 -0.9577956 0.1619807 -0.1895291 -0.9684219 0.07684117 -0.2020077 -0.9763649 0.009380996 -0.2165473 -0.9762271 -0.07642394 -0.2262594 -0.9710644 -0.1417879 -0.2381818 -0.9608151 -0.2263416 -0.244856 -0.9427699 -0.2882462 -0.2541196 -0.9232212 -0.3697718 -0.2575537 -0.8927122 -0.4270961 -0.2641682 -0.8647568 -0.5039303 -0.2642074 -0.8223435 -0.5557122 -0.2682297 -0.7869161 -0.6262803 -0.2647529 -0.733266 -0.6552428 -0.2658252 -0.7071026 -0.729379 -0.2605999 -0.6325299 -0.7602645 0.01911348 0.6493325 -0.8203807 -0.0100128 0.5717301 -0.8523951 -0.02375799 0.5223583 -0.8768393 -0.03978818 0.4791345 -0.9217964 -0.06722366 0.3818016 -0.9223676 -0.06777042 0.3803225 -0.9560315 -0.0977841 0.2764818 -0.966778 -0.1070569 0.2321188 -0.977439 -0.1251447 0.1701521 -0.9863827 -0.1449958 0.07762312 -0.9867712 -0.1491933 0.06343555 -0.9839899 -0.1729724 -0.04294943 -0.9809827 -0.1780833 -0.07719731 -0.9693892 -0.1947618 -0.1495075 -0.9513444 -0.2068133 -0.2284121 -0.9429165 -0.2132648 -0.2557865 -0.9046466 -0.2293769 -0.3591669 -0.8990367 -0.2303709 -0.3723741 -0.8551561 -0.243979 -0.4573647 -0.826112 -0.2474814 -0.5062529 -0.7961981 -0.2544196 -0.5489439 -0.7343155 -0.2596991 -0.627166 -0.7292181 -0.2606319 0.6327022 -0.6550437 -0.2658175 0.7072899 -0.6262803 -0.2647529 0.733266 -0.5557122 -0.2682297 0.7869161 -0.5039303 -0.2642074 0.8223435 -0.4270961 -0.2641682 0.8647568 -0.3697721 -0.2575539 0.892712 -0.2882462 -0.2541196 0.9232212 -0.2263416 -0.244856 0.9427699 -0.1417879 -0.2381818 0.9608151 -0.07642394 -0.2262594 0.9710644 0.009380996 -0.2165473 0.9762271 0.07684117 -0.2020077 0.9763649 0.1619807 -0.1895291 0.9684219 0.2299451 -0.1724904 0.9577956 0.312367 -0.1575974 0.9367978 0.3790084 -0.1382744 0.9150043 0.4565675 -0.1214117 0.8813657 0.5198697 -0.1001316 0.8483568 0.5904548 -0.08182895 0.8029118 0.6483158 -0.05903255 0.7590796 0.7099288 -0.03990858 0.7031419 0.7603081 -0.01613438 0.6493623 0.8112649 0.003156125 0.5846703 0.8523235 0.02729254 0.5223025 0.8913635 0.04608291 0.4509408 0.921617 0.06994163 0.3817464 0.9479896 0.08760666 0.3060081 0.966409 0.1105573 0.2320149 0.9798965 0.126551 0.1542326 0.9859356 0.1480205 0.07759529 0.9803784 0.1813976 -0.07715785 0.9692994 0.1928279 -0.152565 0.9506954 0.2099611 -0.2282424 0.9286064 0.2187216 -0.2997518 0.8984119 0.2331808 -0.372133 0.866421 0.2391414 -0.4383218 0.8254113 0.2507027 -0.5058107 0.7847054 0.2538014 -0.5655284 0.7337799 0.2623046 -0.6267085 0.6855737 0.2625305 -0.6790188 0.625715 0.2678618 -0.7326192 0.5712192 0.2652423 -0.7767594 0.5034842 0.2673212 -0.8216102 0.4439163 0.2619113 -0.856937 0.3694509 0.2606865 -0.8919353 0.3060635 0.2525694 -0.9178965 0.2261517 0.248025 -0.9419869 0.160255 0.2373088 -0.9581248 0.07636409 0.2294713 -0.9703152 0.009380996 0.216314 -0.9762789 -0.07678687 0.2052743 -0.9756876 -0.143332 0.1898818 -0.9712883 -0.2298098 0.1758123 -0.9572239 -0.2942659 0.1584691 -0.9424941 -0.3788216 0.141651 -0.914565 -0.4394804 0.1227129 -0.8898307 -0.5196893 0.1035503 -0.8480568 -0.5748377 0.08345973 -0.8140002 -0.6481854 0.06248086 -0.7589149 -0.6783688 0.04963707 -0.7330429 -0.7537289 0.0211609 -0.6568447 -0.734315 -0.2597025 0.6271652 -0.796307 -0.2544057 0.5487923 -0.8261125 -0.2474821 0.5062518 -0.8553166 -0.2439472 0.4570814 -0.899037 -0.2303657 0.3723767 -0.9047315 -0.2293556 0.3589664 -0.9429747 -0.2132264 0.2556037 -0.9513441 -0.206814 0.2284128 -0.9693917 -0.1947609 0.149493 -0.980983 -0.1780816 0.07719749 -0.9839966 -0.1729542 0.04286515 -0.9867666 -0.1491477 -0.06361418 -0.9863822 -0.1449999 -0.07762271 -0.9774173 -0.1251053 -0.1703063 -0.9667783 -0.1070558 -0.232118 -0.9560087 -0.09776043 -0.2765688 -0.9217901 -0.06732493 -0.3817989 -0.9224138 -0.06764495 -0.3802328 -0.8768706 -0.03980904 -0.4790753 -0.8523948 -0.02375715 -0.5223589 -0.820397 -0.01002365 -0.5717066 -0.760265 0.01911509 -0.6493319 0.8049901 -0.001932799 0.5932852 0.8451149 -0.02228349 0.5341203 0.8523694 -0.02496385 0.522344 0.9165476 -0.06505882 0.3945983 0.9217627 -0.06762534 0.381812 0.9635944 -0.1059126 0.245496 0.9666563 -0.1082704 0.2320628 0.9853999 -0.1437086 0.09129726 0.9862703 -0.1457627 0.07761478 0.9820622 -0.1774986 -0.06362563 0.9807848 -0.1791759 -0.07718235 0.9544786 -0.2065287 -0.2152129 0.9511516 -0.2077766 -0.2283413 0.9041225 -0.2302573 -0.3599224 0.8988814 -0.2310358 -0.3723367 0.8328697 -0.2483083 -0.4946424 0.8258708 -0.2485866 -0.5061049 0.7427784 -0.2604479 -0.616804 0.7342108 -0.2602095 -0.6270771 0.6360321 -0.2665486 -0.7241652 0.6260974 -0.2657787 -0.733051 0.514924 -0.2665504 -0.8147419 0.5037823 -0.2652388 -0.8221021 0.3817868 -0.2604511 -0.8867943 0.3696671 -0.2585976 -0.8924537 0.239153 -0.2483072 -0.9386955 0.2262756 -0.245918 -0.9425093 0.08977782 -0.2302549 -0.9689802 0.07640427 -0.2273412 -0.9708132 -0.06326043 -0.2065283 -0.9763935 -0.07682329 -0.2031118 -0.9761372 -0.2164652 -0.1774981 -0.9600195 -0.2299023 -0.1736172 -0.9576022 -0.3660146 -0.1437091 -0.9194461 -0.3789463 -0.1394239 -0.9148555 -0.5077751 -0.1059108 -0.8549547 -0.5198121 -0.1013002 -0.8482533 -0.6375044 -0.06505721 -0.7676951 -0.6482698 -0.06021726 -0.7590259 -0.7511554 -0.02228277 -0.6597494 -0.7602943 -0.01732647 -0.6493476 -0.8451376 0.02114862 -0.5341303 -0.8523494 0.02609825 -0.5223213 -0.9166135 0.06392729 -0.3946304 -0.9216931 0.06875222 -0.381779 -0.963709 0.1047943 -0.2455266 -0.9665362 0.1093813 -0.232042 -0.9855586 0.14261 -0.0913062 -0.9861078 0.1468606 -0.07761067 -0.982257 0.1764147 0.0636335 -0.9805872 0.180257 0.07717645 -0.9546946 0.2054658 0.215272 -0.9509298 0.2088389 0.2282958 -0.9043546 0.2292089 0.3600082 -0.8986549 0.2320788 0.372235 -0.8330911 0.2472738 0.4947877 -0.8256487 0.2496187 0.5059591 -0.7429839 0.2594279 0.6169864 -0.7340024 0.2612306 0.6268965 -0.6362235 0.2655329 0.72437 -0.6259069 0.2667965 0.7328439 -0.5150728 0.2655326 0.8149802 -0.5036393 0.2662572 0.8218605 -0.3819003 0.2594279 0.8870453 -0.3695605 0.2596207 0.8922008 -0.2392166 0.2472755 0.9389517 -0.2262153 0.2469511 0.9422536 -0.08979606 0.2292089 0.9692265 -0.07638448 0.2283883 0.970569 0.06327009 0.2054645 0.9766173 0.07680535 0.2041763 0.9759166 0.2165111 0.1764157 0.9602085 0.2298559 0.174701 0.9574162 0.3660778 0.1426079 0.9195923 0.378885 0.1405279 0.914712 0.5078331 0.1047942 0.8550578 0.5197507 0.1024174 0.8481568 0.6375471 0.06393063 0.7677543 0.6482318 0.06134408 0.7589681 0.7511848 0.02114528 0.6597532 0.755735 0.01980656 0.654578 0.755735 0.01980656 -0.654578 0.7511848 0.02114528 -0.6597532 0.6482322 0.0613451 -0.7589676 0.6375471 0.06393063 -0.7677543 0.5197509 0.1024174 -0.8481568 0.5078331 0.1047942 -0.8550578 0.3788852 0.140528 -0.914712 0.3660778 0.1426079 -0.9195923 0.2298559 0.1747019 -0.9574161 0.2165111 0.1764157 -0.9602085 0.07680529 0.2041761 -0.9759165 0.06327009 0.2054645 -0.9766173 -0.07638448 0.2283883 -0.970569 -0.08979606 0.2292089 -0.9692265 -0.2262153 0.2469511 -0.9422536 -0.2392166 0.2472755 -0.9389517 -0.3695603 0.2596206 -0.8922008 -0.3819003 0.2594279 -0.8870453 -0.5036391 0.2662571 -0.8218607 -0.5150728 0.2655326 -0.8149802 -0.6259069 0.2667965 -0.7328439 -0.6362235 0.2655329 -0.72437 -0.7340024 0.2612301 -0.6268966 -0.7429839 0.2594279 -0.6169864 -0.8256484 0.2496185 -0.5059598 -0.8330911 0.2472738 -0.4947877 -0.8986548 0.2320793 -0.372235 -0.9043546 0.2292089 -0.3600082 -0.9509299 0.2088385 -0.2282958 -0.9546946 0.2054658 -0.215272 -0.9805871 0.1802574 -0.07717645 -0.982257 0.1764147 -0.0636335 -0.9861078 0.1468606 0.07761067 -0.9855586 0.14261 0.0913062 -0.9665362 0.1093817 0.232042 -0.963709 0.1047943 0.2455266 -0.9216931 0.06875222 0.381779 -0.9166135 0.06392729 0.3946304 -0.852349 0.02609825 0.522322 -0.8451376 0.02114862 0.5341303 -0.7602944 -0.01732599 0.6493477 -0.7511554 -0.02228277 0.6597494 -0.6482698 -0.06021726 0.7590259 -0.6375044 -0.06505721 0.7676951 -0.5198116 -0.1013002 0.8482536 -0.5077751 -0.1059108 0.8549547 -0.378946 -0.1394237 0.9148558 -0.3660146 -0.1437091 0.9194461 -0.2299025 -0.1736174 0.9576022 -0.2164652 -0.1774981 0.9600195 -0.07682317 -0.2031117 0.9761372 -0.06326043 -0.2065283 0.9763935 0.07640421 -0.2273411 0.9708133 0.08977782 -0.2302549 0.9689802 0.2262756 -0.245918 0.9425093 0.239153 -0.2483072 0.9386955 0.3696668 -0.2585973 0.8924539 0.3817868 -0.2604511 0.8867943 0.5037823 -0.2652388 0.8221021 0.514924 -0.2665504 0.8147419 0.626097 -0.2657786 0.7330514 0.6360321 -0.2665486 0.7241652 0.7342108 -0.2602095 0.6270771 0.7427784 -0.2604479 0.616804 0.8258708 -0.2485866 0.5061049 0.8328697 -0.2483083 0.4946424 0.8988814 -0.2310358 0.3723367 0.9041225 -0.2302573 0.3599224 0.9511516 -0.2077766 0.2283413 0.9544786 -0.2065287 0.2152129 0.9807848 -0.1791759 0.07718235 0.9820622 -0.1774986 0.06362563 0.9862703 -0.1457627 -0.07761478 0.9853999 -0.1437086 -0.09129726 0.9666563 -0.1082704 -0.2320628 0.9635944 -0.1059126 -0.245496 0.9217627 -0.06762534 -0.381812 0.9165476 -0.06505882 -0.3945983 0.8523694 -0.02496385 -0.522344 0.8451149 -0.02228349 -0.5341203 0.8049901 -0.001932799 -0.5932852 0 -1 -1.65227e-6 0 -1 -9.04168e-7 0 -1 0 0 -1 8.23007e-6 0 -1 1.04649e-5 0 -1 4.98453e-6 0 -1 -6.41629e-6 0 -1 -2.28831e-6 0 -1 6.79139e-6 0 -1 -5.23827e-6 0 -1 1.51355e-6 0 -1 -1.58378e-6 0 -1 -4.81534e-6 0 -1 3.19997e-6 0 -1 -2.79864e-6 0 -1 2.78676e-6 0 -1 4.87614e-6 0 -1 -3.16007e-6 0 -1 5.06809e-6 0 -1 -3.41452e-6 0 -1 3.76501e-6 0 -1 -6.57387e-6 0 -1 8.62189e-6 0 -1 -1.59505e-5 0 -1 1.05388e-5 0 -1 -1.04649e-5 0 -1 -7.89364e-6 0 -1 9.04168e-7 0 -1 -2.46287e-6 0 -1 -1.47517e-6 0 -1 1.44854e-6 0 -1 -3.89426e-6 0 -1 7.31741e-7 0 -1 1.11534e-6 0 -1 -4.02913e-7 0 -1 0 0 -1 0 0 -1 0 0 -1 0 0 -1 4.02913e-7 0 -1 -1.11534e-6 0 -1 -7.31741e-7 0 -1 3.89426e-6 0 -1 -1.44854e-6 0 -1 1.65227e-6 0 -1 1.44104e-7 0 -1 0 0 -1 -2.28473e-6 0 -1 1.24025e-6 0 -1 7.91491e-7 0 -1 -4.16342e-6 0 -1 3.31674e-6 0 -1 1.47517e-6 0 -1 4.16342e-6 0 -1 -3.94848e-7 0 -1 -1.24025e-6 0 -1 3.65556e-6 0 -1 -5.4141e-7 0 -1 0 -1 0 0</float_array>
          <technique_common>
            <accessor source="#ShapeIndexedFaceSet-mesh-normals-array" count="516" stride="3">
              <param name="X" type="float"/>
              <param name="Y" type="float"/>
              <param name="Z" type="float"/>
            </accessor>
          </technique_common>
        </source>
        <vertices id="ShapeIndexedFaceSet-mesh-vertices">
          <input semantic="POSITION" source="#ShapeIndexedFaceSet-mesh-positions"/>
        </vertices>
        <triangles material="Shape_025-material" count="740">
          <input semantic="VERTEX" source="#ShapeIndexedFaceSet-mesh-vertices" offset="0"/>
          <input semantic="NORMAL" source="#ShapeIndexedFaceSet-mesh-normals" offset="1"/>
          <p>60 0 1 0 59 0 59 1 1 1 2 1 59 2 2 2 58 2 58 3 2 3 3 3 58 4 3 4 4 4 58 5 4 5 57 5 57 6 4 6 5 6 57 7 5 7 56 7 56 8 5 8 6 8 56 9 6 9 55 9 55 10 6 10 7 10 55 11 7 11 54 11 54 12 7 12 53 12 7 13 8 13 53 13 53 14 8 14 52 14 8 15 9 15 52 15 52 16 9 16 21 16 52 17 21 17 40 17 40 18 21 18 22 18 40 19 22 19 39 19 39 20 22 20 23 20 39 20 23 20 38 20 38 21 23 21 24 21 38 22 24 22 37 22 37 23 24 23 25 23 37 24 25 24 36 24 36 25 25 25 26 25 36 26 26 26 35 26 35 27 26 27 27 27 35 27 27 27 34 27 34 28 27 28 28 28 34 28 28 28 33 28 33 29 28 29 29 29 33 30 29 30 32 30 32 31 29 31 31 31 9 32 10 32 21 32 21 33 10 33 20 33 10 34 11 34 20 34 20 35 11 35 12 35 20 36 12 36 13 36 13 37 14 37 20 37 20 38 14 38 19 38 14 39 15 39 19 39 19 40 15 40 16 40 19 41 16 41 18 41 18 42 16 42 17 42 29 31 30 31 31 31 40 43 41 43 52 43 52 44 41 44 51 44 45 45 46 45 42 45 42 46 46 46 47 46 42 47 47 47 41 47 41 48 47 48 48 48 41 49 48 49 49 49 42 50 43 50 45 50 45 51 43 51 44 51 49 52 50 52 41 52 41 53 50 53 51 53 62 54 73 54 61 54 61 54 73 54 74 54 61 54 74 54 75 54 62 54 63 54 73 54 73 55 63 55 64 55 73 56 64 56 65 56 65 57 66 57 73 57 73 58 66 58 67 58 73 59 67 59 68 59 68 54 69 54 73 54 73 60 69 60 70 60 73 54 70 54 71 54 71 54 72 54 73 54 75 54 76 54 61 54 78 61 79 61 77 61 77 61 79 61 80 61 81 62 82 62 144 62 144 62 82 62 143 62 159 62 160 62 83 62 83 63 160 63 161 63 83 64 161 64 82 64 82 65 161 65 162 65 82 66 162 66 163 66 221 62 222 62 84 62 84 62 222 62 148 62 84 62 148 62 83 62 83 67 148 67 149 67 83 68 149 68 150 68 207 62 208 62 85 62 85 69 208 69 209 69 85 70 209 70 84 70 84 71 209 71 210 71 84 72 210 72 211 72 86 62 87 62 85 62 85 62 87 62 88 62 85 73 88 73 89 73 89 62 90 62 85 62 85 74 90 74 91 74 85 75 91 75 92 75 92 62 93 62 85 62 85 62 93 62 94 62 85 76 94 76 207 76 207 77 94 77 95 77 207 78 95 78 206 78 206 79 95 79 96 79 206 62 96 62 205 62 205 80 96 80 97 80 205 62 97 62 204 62 204 81 97 81 98 81 204 62 98 62 203 62 203 82 98 82 99 82 203 83 99 83 202 83 202 84 99 84 100 84 202 62 100 62 201 62 201 62 100 62 101 62 201 62 101 62 200 62 200 85 101 85 102 85 200 86 102 86 199 86 199 87 102 87 103 87 199 62 103 62 171 62 171 62 103 62 128 62 171 88 128 88 129 88 103 62 104 62 128 62 128 62 104 62 127 62 104 62 105 62 127 62 127 62 105 62 126 62 105 62 106 62 126 62 126 62 106 62 125 62 106 62 107 62 125 62 125 62 107 62 124 62 107 62 108 62 124 62 124 62 108 62 123 62 108 62 109 62 123 62 123 62 109 62 122 62 109 62 110 62 122 62 122 62 110 62 121 62 110 62 111 62 121 62 121 62 111 62 120 62 111 62 112 62 120 62 120 62 112 62 119 62 112 62 113 62 119 62 119 62 113 62 118 62 113 62 114 62 118 62 118 62 114 62 117 62 114 62 115 62 117 62 117 62 115 62 116 62 171 89 129 89 170 89 170 90 129 90 130 90 170 62 130 62 169 62 169 62 130 62 131 62 169 62 131 62 168 62 168 91 131 91 132 91 168 92 132 92 167 92 167 93 132 93 133 93 167 62 133 62 166 62 166 94 133 94 134 94 166 62 134 62 165 62 165 95 134 95 135 95 165 62 135 62 164 62 164 96 135 96 136 96 164 97 136 97 163 97 163 98 136 98 137 98 163 99 137 99 82 99 82 62 137 62 138 62 82 100 138 100 139 100 139 101 140 101 82 101 82 102 140 102 141 102 82 62 141 62 142 62 142 103 143 103 82 103 147 62 223 62 146 62 146 62 223 62 224 62 146 62 224 62 145 62 145 62 224 62 185 62 145 62 185 62 184 62 184 62 185 62 186 62 184 62 186 62 183 62 183 62 186 62 187 62 183 62 187 62 182 62 182 62 187 62 188 62 182 62 188 62 181 62 181 62 188 62 189 62 181 62 189 62 180 62 180 62 189 62 190 62 180 62 190 62 179 62 179 62 190 62 191 62 179 62 191 62 192 62 147 62 148 62 223 62 223 62 148 62 222 62 150 104 151 104 83 104 83 105 151 105 152 105 83 106 152 106 153 106 153 62 154 62 83 62 83 107 154 107 155 107 83 108 155 108 156 108 156 62 157 62 83 62 83 109 157 109 158 109 83 62 158 62 159 62 199 62 171 62 198 62 198 62 171 62 172 62 198 62 172 62 197 62 197 62 172 62 173 62 197 62 173 62 196 62 196 62 173 62 174 62 196 62 174 62 195 62 195 62 174 62 175 62 195 62 175 62 194 62 194 62 175 62 176 62 194 62 176 62 193 62 193 62 176 62 177 62 193 62 177 62 178 62 193 62 178 62 192 62 192 62 178 62 179 62 211 62 212 62 84 62 84 110 212 110 213 110 84 111 213 111 214 111 214 62 215 62 84 62 84 112 215 112 216 112 84 113 216 113 217 113 217 62 218 62 84 62 84 114 218 114 219 114 84 115 219 115 220 115 220 116 221 116 84 116 226 117 227 117 225 117 225 117 227 117 228 117 225 118 228 118 229 118 229 117 230 117 225 117 225 119 230 119 231 119 225 120 231 120 232 120 232 121 233 121 225 121 225 122 233 122 234 122 225 123 234 123 235 123 235 117 236 117 225 117 225 124 236 124 237 124 225 117 237 117 240 117 240 117 237 117 239 117 237 117 238 117 239 117 295 125 296 125 256 125 256 126 296 126 297 126 256 127 297 127 255 127 255 128 297 128 298 128 255 129 298 129 254 129 254 130 298 130 299 130 254 131 299 131 253 131 253 132 299 132 300 132 253 133 300 133 252 133 252 134 300 134 301 134 252 135 301 135 251 135 251 136 301 136 302 136 251 137 302 137 250 137 250 138 302 138 303 138 250 139 303 139 249 139 249 140 303 140 304 140 249 141 304 141 248 141 248 142 304 142 305 142 248 143 305 143 247 143 247 144 305 144 306 144 247 145 306 145 246 145 246 146 306 146 307 146 246 147 307 147 245 147 245 148 307 148 308 148 245 149 308 149 244 149 244 150 308 150 309 150 244 151 309 151 243 151 243 152 309 152 310 152 243 153 310 153 242 153 242 154 310 154 311 154 242 155 311 155 241 155 241 156 311 156 312 156 241 157 312 157 280 157 280 158 312 158 313 158 280 159 313 159 279 159 279 160 313 160 314 160 279 161 314 161 278 161 278 162 314 162 326 162 278 163 326 163 277 163 327 164 315 164 316 164 327 165 316 165 276 165 276 166 316 166 317 166 276 167 317 167 275 167 275 168 317 168 318 168 275 169 318 169 274 169 274 170 318 170 319 170 274 171 319 171 273 171 273 172 319 172 320 172 273 173 320 173 272 173 272 174 320 174 321 174 272 175 321 175 271 175 271 176 321 176 322 176 271 177 322 177 270 177 270 178 322 178 323 178 270 179 323 179 269 179 269 180 323 180 324 180 269 181 324 181 268 181 268 182 324 182 325 182 268 183 325 183 267 183 267 184 325 184 281 184 267 185 281 185 266 185 266 186 281 186 282 186 266 187 282 187 283 187 256 188 257 188 295 188 295 189 257 189 294 189 257 190 258 190 294 190 294 191 258 191 293 191 258 192 259 192 293 192 293 193 259 193 292 193 292 194 259 194 291 194 291 195 259 195 260 195 291 196 260 196 290 196 290 197 260 197 261 197 290 198 261 198 289 198 289 199 261 199 288 199 261 200 262 200 288 200 288 201 262 201 287 201 262 202 263 202 287 202 287 203 263 203 286 203 286 204 263 204 285 204 285 205 263 205 264 205 285 206 264 206 284 206 284 207 264 207 265 207 284 208 265 208 283 208 283 209 265 209 266 209 382 210 383 210 343 210 343 211 383 211 384 211 343 212 384 212 342 212 342 213 384 213 385 213 342 214 385 214 341 214 341 215 385 215 386 215 341 216 386 216 340 216 340 217 386 217 387 217 340 218 387 218 339 218 339 219 387 219 388 219 339 220 388 220 338 220 338 221 388 221 389 221 338 222 389 222 337 222 337 223 389 223 390 223 337 224 390 224 336 224 336 225 390 225 391 225 336 226 391 226 335 226 335 227 391 227 392 227 335 228 392 228 334 228 334 229 392 229 393 229 334 230 393 230 333 230 333 231 393 231 414 231 413 232 394 232 332 232 332 233 394 233 395 233 332 234 395 234 331 234 331 235 395 235 396 235 331 236 396 236 330 236 330 237 396 237 397 237 330 238 397 238 329 238 329 239 397 239 398 239 329 240 398 240 328 240 328 156 398 156 399 156 328 241 399 241 367 241 367 242 399 242 400 242 367 243 400 243 366 243 366 244 400 244 401 244 366 245 401 245 365 245 365 246 401 246 402 246 365 247 402 247 364 247 364 248 402 248 403 248 364 249 403 249 363 249 363 250 403 250 404 250 363 251 404 251 362 251 362 252 404 252 405 252 362 253 405 253 361 253 361 254 405 254 406 254 361 255 406 255 360 255 360 256 406 256 407 256 360 257 407 257 359 257 359 258 407 258 408 258 359 259 408 259 358 259 358 260 408 260 409 260 358 261 409 261 357 261 357 262 409 262 410 262 357 263 410 263 356 263 356 264 410 264 411 264 356 265 411 265 355 265 355 266 411 266 412 266 355 267 412 267 354 267 354 268 412 268 368 268 354 269 368 269 353 269 353 270 368 270 369 270 353 271 369 271 370 271 343 272 344 272 382 272 382 273 344 273 381 273 344 274 345 274 381 274 381 275 345 275 380 275 345 276 346 276 380 276 380 277 346 277 379 277 379 278 346 278 378 278 378 279 346 279 347 279 378 280 347 280 377 280 377 281 347 281 348 281 377 282 348 282 376 282 376 283 348 283 375 283 348 284 349 284 375 284 375 285 349 285 374 285 349 286 350 286 374 286 374 287 350 287 373 287 350 288 351 288 373 288 373 289 351 289 372 289 372 290 351 290 371 290 371 291 351 291 352 291 371 292 352 292 370 292 370 293 352 293 353 293 497 294 456 294 439 294 439 295 456 295 457 295 439 296 457 296 438 296 438 297 457 297 458 297 438 298 458 298 437 298 437 299 458 299 459 299 437 300 459 300 436 300 436 301 459 301 460 301 436 302 460 302 435 302 435 303 460 303 461 303 435 304 461 304 434 304 434 305 461 305 462 305 434 306 462 306 433 306 433 307 462 307 463 307 433 308 463 308 432 308 432 309 463 309 464 309 432 310 464 310 431 310 431 311 464 311 465 311 431 312 465 312 430 312 430 313 465 313 466 313 430 314 466 314 429 314 429 315 466 315 467 315 429 316 467 316 428 316 428 317 467 317 468 317 428 318 468 318 427 318 427 319 468 319 469 319 427 320 469 320 426 320 426 321 469 321 470 321 426 322 470 322 425 322 425 323 470 323 471 323 425 324 471 324 424 324 424 325 471 325 472 325 424 326 472 326 423 326 423 327 472 327 473 327 423 328 473 328 422 328 422 329 473 329 474 329 422 330 474 330 421 330 421 331 474 331 475 331 421 332 475 332 420 332 420 333 475 333 476 333 420 334 476 334 419 334 419 335 476 335 477 335 419 336 477 336 418 336 418 337 477 337 478 337 418 338 478 338 417 338 417 339 478 339 479 339 417 340 479 340 416 340 416 341 479 341 480 341 416 342 480 342 415 342 415 343 480 343 481 343 415 344 481 344 455 344 455 345 481 345 482 345 455 346 482 346 454 346 454 347 482 347 483 347 454 348 483 348 453 348 453 349 483 349 484 349 453 350 484 350 452 350 452 351 484 351 485 351 452 352 485 352 451 352 451 353 485 353 486 353 451 354 486 354 450 354 450 355 486 355 487 355 450 356 487 356 449 356 449 357 487 357 488 357 449 358 488 358 448 358 448 359 488 359 489 359 448 360 489 360 447 360 447 361 489 361 490 361 447 362 490 362 446 362 446 363 490 363 491 363 446 364 491 364 445 364 445 365 491 365 492 365 445 366 492 366 444 366 444 367 492 367 493 367 444 368 493 368 443 368 443 369 493 369 494 369 443 370 494 370 442 370 442 371 494 371 495 371 442 372 495 372 441 372 441 373 495 373 496 373 441 374 496 374 440 374 579 375 539 375 513 375 513 376 539 376 540 376 513 377 540 377 512 377 512 378 540 378 541 378 512 379 541 379 511 379 511 380 541 380 542 380 511 381 542 381 510 381 510 382 542 382 543 382 510 383 543 383 509 383 509 384 543 384 544 384 509 385 544 385 508 385 508 386 544 386 545 386 508 387 545 387 507 387 507 388 545 388 546 388 507 389 546 389 506 389 506 390 546 390 547 390 506 391 547 391 505 391 505 392 547 392 548 392 505 393 548 393 504 393 504 394 548 394 549 394 504 395 549 395 503 395 503 396 549 396 550 396 503 397 550 397 502 397 502 398 550 398 551 398 502 399 551 399 501 399 501 400 551 400 552 400 501 401 552 401 500 401 500 402 552 402 553 402 500 403 553 403 499 403 499 404 553 404 554 404 499 405 554 405 498 405 498 406 554 406 555 406 498 407 555 407 538 407 538 408 555 408 556 408 538 409 556 409 537 409 537 410 556 410 557 410 537 411 557 411 536 411 536 412 557 412 558 412 536 413 558 413 535 413 535 414 558 414 559 414 535 415 559 415 534 415 534 416 559 416 560 416 534 417 560 417 533 417 533 418 560 418 561 418 533 419 561 419 532 419 532 420 561 420 562 420 532 421 562 421 531 421 531 422 562 422 563 422 531 423 563 423 530 423 530 424 563 424 564 424 530 425 564 425 529 425 529 426 564 426 565 426 529 427 565 427 528 427 528 428 565 428 566 428 528 429 566 429 527 429 527 430 566 430 567 430 527 431 567 431 526 431 526 432 567 432 568 432 526 433 568 433 525 433 525 434 568 434 569 434 525 435 569 435 524 435 524 436 569 436 570 436 524 437 570 437 523 437 523 438 570 438 571 438 523 439 571 439 522 439 522 440 571 440 572 440 522 441 572 441 521 441 521 442 572 442 573 442 521 443 573 443 520 443 520 444 573 444 574 444 520 445 574 445 519 445 519 446 574 446 575 446 519 447 575 447 518 447 518 448 575 448 576 448 518 449 576 449 517 449 517 450 576 450 577 450 517 451 577 451 516 451 516 452 577 452 578 452 516 453 578 453 515 453 515 454 578 454 580 454 515 455 580 455 514 455 746 456 743 456 590 456 590 457 743 457 693 457 590 458 693 458 589 458 589 459 693 459 694 459 589 458 694 458 588 458 588 460 694 460 695 460 588 458 695 458 587 458 587 461 695 461 696 461 587 462 696 462 586 462 586 463 696 463 697 463 586 458 697 458 585 458 585 464 697 464 698 464 585 465 698 465 584 465 584 466 698 466 699 466 584 458 699 458 583 458 583 467 699 467 700 467 583 468 700 468 582 468 582 469 700 469 701 469 582 458 701 458 581 458 581 470 701 470 661 470 581 458 661 458 620 458 620 471 661 471 662 471 620 472 662 472 619 472 619 473 662 473 663 473 619 458 663 458 623 458 623 458 663 458 741 458 623 468 741 468 622 468 622 469 741 469 742 469 622 458 742 458 621 458 621 470 742 470 702 470 621 458 702 458 660 458 660 471 702 471 703 471 660 472 703 472 659 472 659 473 703 473 704 473 659 474 704 474 658 474 658 475 704 475 705 475 658 458 705 458 657 458 657 476 705 476 706 476 657 458 706 458 656 458 656 477 706 477 707 477 656 458 707 458 655 458 655 478 707 478 708 478 655 479 708 479 654 479 654 480 708 480 709 480 654 481 709 481 653 481 653 458 709 458 710 458 653 458 710 458 652 458 652 482 710 482 711 482 652 483 711 483 744 483 744 484 711 484 712 484 744 485 712 485 713 485 590 458 591 458 746 458 746 486 591 486 592 486 746 458 592 458 593 458 593 458 594 458 746 458 746 487 594 487 595 487 746 488 595 488 596 488 596 458 597 458 746 458 746 489 597 489 598 489 746 490 598 490 599 490 599 458 600 458 746 458 746 491 600 491 601 491 746 492 601 492 602 492 746 458 602 458 640 458 640 458 602 458 603 458 640 458 603 458 639 458 639 458 603 458 638 458 603 458 604 458 638 458 638 458 604 458 637 458 604 458 605 458 637 458 637 458 605 458 636 458 605 458 606 458 636 458 636 458 606 458 635 458 606 458 607 458 635 458 635 458 607 458 634 458 607 458 608 458 634 458 634 458 608 458 633 458 608 458 609 458 633 458 633 458 609 458 632 458 609 458 610 458 632 458 632 458 610 458 631 458 610 458 611 458 631 458 631 458 611 458 612 458 631 458 612 458 630 458 630 458 612 458 613 458 630 458 613 458 629 458 629 458 613 458 628 458 613 458 614 458 628 458 628 458 614 458 627 458 614 458 615 458 627 458 627 458 615 458 626 458 615 458 616 458 626 458 626 458 616 458 625 458 616 458 617 458 625 458 625 458 617 458 624 458 617 458 618 458 624 458 624 458 618 458 623 458 618 458 619 458 623 458 746 458 640 458 745 458 745 493 640 493 641 493 745 494 641 494 642 494 642 458 643 458 745 458 745 495 643 495 644 495 745 496 644 496 645 496 645 458 646 458 745 458 745 497 646 497 647 497 745 498 647 498 648 498 648 458 649 458 745 458 745 458 649 458 650 458 745 499 650 499 651 499 651 458 652 458 745 458 745 500 652 500 744 500 663 458 664 458 741 458 741 458 664 458 740 458 664 458 665 458 740 458 740 458 665 458 739 458 665 458 666 458 739 458 739 458 666 458 738 458 666 458 667 458 738 458 738 458 667 458 737 458 667 458 668 458 737 458 737 458 668 458 736 458 668 458 669 458 736 458 736 458 669 458 735 458 669 458 670 458 735 458 735 458 670 458 734 458 670 458 671 458 734 458 734 458 671 458 733 458 671 458 672 458 733 458 733 458 672 458 732 458 672 458 673 458 732 458 732 458 673 458 731 458 673 458 674 458 731 458 731 458 674 458 730 458 674 458 675 458 730 458 730 458 675 458 729 458 675 458 676 458 729 458 729 458 676 458 728 458 676 458 677 458 728 458 728 458 677 458 727 458 677 458 678 458 727 458 727 458 678 458 726 458 678 458 679 458 726 458 726 458 679 458 725 458 679 458 680 458 725 458 725 458 680 458 724 458 724 458 680 458 723 458 723 458 680 458 681 458 723 458 681 458 743 458 743 501 681 501 682 501 743 502 682 502 683 502 683 458 684 458 743 458 743 503 684 503 685 503 743 504 685 504 686 504 686 458 687 458 743 458 743 505 687 505 688 505 743 506 688 506 689 506 689 458 690 458 743 458 743 507 690 507 691 507 743 508 691 508 692 508 692 458 693 458 743 458 713 458 714 458 744 458 744 458 714 458 715 458 744 509 715 509 716 509 716 458 717 458 744 458 744 510 717 510 718 510 744 511 718 511 719 511 719 512 720 512 744 512 744 513 720 513 721 513 744 514 721 514 722 514 722 458 723 458 744 458 744 458 723 458 743 458 748 515 749 515 747 515 747 515 749 515 750 515</p>
        </triangles>
      </mesh>
    </geometry>
  </library_geometries>
  <library_controllers/>
  <library_visual_scenes>
    <visual_scene id="Scene" name="Scene">
      <node id="Camera" name="Camera" type="NODE">
        <matrix sid="transform">0.6859207 -0.3240135 0.6515582 7.481132 0.7276763 0.3054208 -0.6141704 -6.50764 0 0.8953956 0.4452714 5.343665 0 0 0 1</matrix>
        <instance_camera url="#Camera-camera"/>
      </node>
      <node id="Lamp" name="Lamp" type="NODE">
        <matrix sid="transform">-0.2908646 -0.7711008 0.5663932 4.076245 0.9551712 -0.1998834 0.2183912 1.005454 -0.05518906 0.6045247 0.7946723 5.903862 0 0 0 1</matrix>
        <instance_light url="#Lamp-light"/>
      </node>
      <node id="Lamp_001" name="Lamp_001" type="NODE">
        <matrix sid="transform">-0.2908646 -0.7711008 0.5663933 3.201399 0.9551712 -0.1998833 0.2183912 -2.716114 -0.05518906 0.6045247 0.7946723 4.889499 0 0 0 1</matrix>
        <instance_light url="#Lamp_001-light"/>
      </node>
      <node id="ShapeIndexedFaceSet_025" name="ShapeIndexedFaceSet_025" type="NODE">
        <matrix sid="transform">1 0 0 0 0 -4.37114e-8 -1 0 0 1 -4.37114e-8 -0.75 0 0 0 1</matrix>
        <instance_geometry url="#ShapeIndexedFaceSet-mesh" name="ShapeIndexedFaceSet_025">
          <bind_material>
            <technique_common>
              <instance_material symbol="Shape_025-material" target="#Shape_025-material"/>
            </technique_common>
          </bind_material>
        </instance_geometry>
      </node>
    </visual_scene>
  </library_visual_scenes>
  <scene>
    <instance_visual_scene url="#Scene"/>
  </scene>
</COLLADA>