<?xml version="1.0" encoding="utf-8"?>
<COLLADA xmlns="http://www.collada.org/2005/11/COLLADASchema" version="1.4.1">
  <asset>
    <contributor>
      <author>Blender User</author>
      <authoring_tool>Blender 2.79.0</authoring_tool>
    </contributor>
    <created>2018-08-31T10:25:31</created>
    <modified>2018-08-31T10:25:31</modified>
    <unit name="meter" meter="1"/>
    <up_axis>Z_UP</up_axis>
  </asset>
  <library_cameras>
    <camera id="Camera-camera" name="Camera">
      <optics>
        <technique_common>
          <perspective>
            <xfov sid="xfov">49.13434</xfov>
            <aspect_ratio>1.777778</aspect_ratio>
            <znear sid="znear">0.1</znear>
            <zfar sid="zfar">100</zfar>
          </perspective>
        </technique_common>
      </optics>
      <extra>
        <technique profile="blender">
          <YF_dofdist>0</YF_dofdist>
          <shiftx>0</shiftx>
          <shifty>0</shifty>
        </technique>
      </extra>
    </camera>
  </library_cameras>
  <library_lights>
    <light id="Lamp-light" name="Lamp">
      <technique_common>
        <point>
          <color sid="color">1 1 1</color>
          <constant_attenuation>1</constant_attenuation>
          <linear_attenuation>0</linear_attenuation>
          <quadratic_attenuation>0.00111109</quadratic_attenuation>
        </point>
      </technique_common>
      <extra>
        <technique profile="blender">
          <adapt_thresh>0.000999987</adapt_thresh>
          <area_shape>1</area_shape>
          <area_size>0.1</area_size>
          <area_sizey>0.1</area_sizey>
          <area_sizez>1</area_sizez>
          <atm_distance_factor>1</atm_distance_factor>
          <atm_extinction_factor>1</atm_extinction_factor>
          <atm_turbidity>2</atm_turbidity>
          <att1>0</att1>
          <att2>1</att2>
          <backscattered_light>1</backscattered_light>
          <bias>1</bias>
          <blue>1</blue>
          <buffers>1</buffers>
          <bufflag>0</bufflag>
          <bufsize>2880</bufsize>
          <buftype>2</buftype>
          <clipend>30.002</clipend>
          <clipsta>1.000799</clipsta>
          <compressthresh>0.04999995</compressthresh>
          <dist sid="blender_dist">29.99998</dist>
          <energy sid="blender_energy">1</energy>
          <falloff_type>2</falloff_type>
          <filtertype>0</filtertype>
          <flag>0</flag>
          <gamma sid="blender_gamma">1</gamma>
          <green>1</green>
          <halo_intensity sid="blnder_halo_intensity">1</halo_intensity>
          <horizon_brightness>1</horizon_brightness>
          <mode>8192</mode>
          <ray_samp>1</ray_samp>
          <ray_samp_method>1</ray_samp_method>
          <ray_samp_type>0</ray_samp_type>
          <ray_sampy>1</ray_sampy>
          <ray_sampz>1</ray_sampz>
          <red>1</red>
          <samp>3</samp>
          <shadhalostep>0</shadhalostep>
          <shadow_b sid="blender_shadow_b">0</shadow_b>
          <shadow_g sid="blender_shadow_g">0</shadow_g>
          <shadow_r sid="blender_shadow_r">0</shadow_r>
          <sky_colorspace>0</sky_colorspace>
          <sky_exposure>1</sky_exposure>
          <skyblendfac>1</skyblendfac>
          <skyblendtype>1</skyblendtype>
          <soft>3</soft>
          <spotblend>0.15</spotblend>
          <spotsize>75</spotsize>
          <spread>1</spread>
          <sun_brightness>1</sun_brightness>
          <sun_effect_type>0</sun_effect_type>
          <sun_intensity>1</sun_intensity>
          <sun_size>1</sun_size>
          <type>0</type>
        </technique>
      </extra>
    </light>
    <light id="Lamp_001-light" name="Lamp.001">
      <technique_common>
        <point>
          <color sid="color">1 1 1</color>
          <constant_attenuation>1</constant_attenuation>
          <linear_attenuation>0</linear_attenuation>
          <quadratic_attenuation>0.00111109</quadratic_attenuation>
        </point>
      </technique_common>
      <extra>
        <technique profile="blender">
          <adapt_thresh>9.99987e-4</adapt_thresh>
          <area_shape>1</area_shape>
          <area_size>0.1</area_size>
          <area_sizey>0.1</area_sizey>
          <area_sizez>1</area_sizez>
          <atm_distance_factor>1</atm_distance_factor>
          <atm_extinction_factor>1</atm_extinction_factor>
          <atm_turbidity>2</atm_turbidity>
          <att1>0</att1>
          <att2>1</att2>
          <backscattered_light>1</backscattered_light>
          <bias>1</bias>
          <blue>1</blue>
          <buffers>1</buffers>
          <bufflag>0</bufflag>
          <bufsize>2880</bufsize>
          <buftype>2</buftype>
          <clipend>30.002</clipend>
          <clipsta>1.000799</clipsta>
          <compressthresh>0.04999995</compressthresh>
          <dist sid="blender_dist">29.99998</dist>
          <energy sid="blender_energy">1</energy>
          <falloff_type>2</falloff_type>
          <filtertype>0</filtertype>
          <flag>0</flag>
          <gamma sid="blender_gamma">1</gamma>
          <green>1</green>
          <halo_intensity sid="blnder_halo_intensity">1</halo_intensity>
          <horizon_brightness>1</horizon_brightness>
          <mode>8192</mode>
          <ray_samp>1</ray_samp>
          <ray_samp_method>1</ray_samp_method>
          <ray_samp_type>0</ray_samp_type>
          <ray_sampy>1</ray_sampy>
          <ray_sampz>1</ray_sampz>
          <red>1</red>
          <samp>3</samp>
          <shadhalostep>0</shadhalostep>
          <shadow_b sid="blender_shadow_b">0</shadow_b>
          <shadow_g sid="blender_shadow_g">0</shadow_g>
          <shadow_r sid="blender_shadow_r">0</shadow_r>
          <sky_colorspace>0</sky_colorspace>
          <sky_exposure>1</sky_exposure>
          <skyblendfac>1</skyblendfac>
          <skyblendtype>1</skyblendtype>
          <soft>3</soft>
          <spotblend>0.15</spotblend>
          <spotsize>75</spotsize>
          <spread>1</spread>
          <sun_brightness>1</sun_brightness>
          <sun_effect_type>0</sun_effect_type>
          <sun_intensity>1</sun_intensity>
          <sun_size>1</sun_size>
          <type>0</type>
        </technique>
      </extra>
    </light>
  </library_lights>
  <library_images/>
  <library_effects>
    <effect id="Shape_024-effect">
      <profile_COMMON>
        <technique sid="common">
          <phong>
            <emission>
              <color sid="emission">0 0 0 1</color>
            </emission>
            <ambient>
              <color sid="ambient">0 0 0 1</color>
            </ambient>
            <diffuse>
              <color sid="diffuse">0.6405241 0.6405241 0.6405241 1</color>
            </diffuse>
            <specular>
              <color sid="specular">0 0 0 1</color>
            </specular>
            <shininess>
              <float sid="shininess">103</float>
            </shininess>
            <index_of_refraction>
              <float sid="index_of_refraction">1</float>
            </index_of_refraction>
          </phong>
        </technique>
      </profile_COMMON>
    </effect>
  </library_effects>
  <library_materials>
    <material id="Shape_024-material" name="Shape_024">
      <instance_effect url="#Shape_024-effect"/>
    </material>
  </library_materials>
  <library_geometries>
    <geometry id="ShapeIndexedFaceSet_025-mesh" name="ShapeIndexedFaceSet.025">
      <mesh>
        <source id="ShapeIndexedFaceSet_025-mesh-positions">
          <float_array id="ShapeIndexedFaceSet_025-mesh-positions-array" count="2655">0 0 0 -1.263952 0.4427006 -0.65 -1.263952 0.4427006 0.65 -1.303952 0.4427006 0.65 -1.303952 0.4427006 -0.65 -1.263952 0.5427006 0.65 -1.263952 0.5427006 -0.65 -1.303952 0.5427006 -0.65 -1.303952 0.5427006 0.65 -1.263952 1.304701 0.65 -1.263952 1.304701 -0.65 -1.303952 1.304701 -0.65 -1.303952 1.304701 0.65 -1.263952 1.204701 -0.65 -1.263952 1.204701 0.65 -1.303952 1.204701 0.65 -1.303952 1.204701 -0.65 -1.263952 1.304701 0.65 -1.303952 1.304701 0.65 -1.303952 1.504701 0.65 -1.263952 1.504701 0.65 -1.303952 0.4427006 0.65 -1.263952 0.4427006 0.65 -1.263952 0.1047006 0.65 -1.303952 0.1047006 0.65 -1.263952 0.5427006 0.65 -1.303952 0.5427006 0.65 -1.303952 1.204701 0.65 -1.263952 1.204701 0.65 -1.303952 1.304701 -0.65 -1.263952 1.304701 -0.65 -1.263952 1.504701 -0.65 -1.303952 1.504701 -0.65 -1.303952 0.5427006 -0.65 -1.263952 0.5427006 -0.65 -1.263952 1.204701 -0.65 -1.303952 1.204701 -0.65 -1.263952 0.4427006 -0.65 -1.303952 0.4427006 -0.65 -1.303952 0.1047006 -0.65 -1.263952 0.1047006 -0.65 0.09804791 1.144701 -0.71 0.08033579 1.143151 -0.71 0.06316184 1.138549 -0.71 0.04704785 1.131035 -0.71 0.03248345 1.120837 -0.71 0.01991128 1.108265 -0.71 0.009713292 1.093701 -0.71 0.002199232 1.077587 -0.71 -0.002402484 1.060413 -0.71 -0.003952026 1.042701 -0.71 -0.003952026 1.042701 -0.75 -0.002402484 1.060413 -0.75 0.002199232 1.077587 -0.75 0.009713292 1.093701 -0.75 0.01991128 1.108265 -0.75 0.03248345 1.120837 -0.75 0.04704785 1.131035 -0.75 0.06316184 1.138549 -0.75 0.08033579 1.143151 -0.75 0.09804791 1.144701 -0.75 0.9104164 1.144701 -0.71 0.09804791 1.144701 -0.71 0.09804791 1.144701 -0.75 0.9104164 1.144701 -0.75 0.09804791 1.244701 -0.71 0.9244704 1.244701 -0.71 0.9244704 1.244701 -0.75 0.09804791 1.244701 -0.75 -0.1039521 1.042701 -0.71 -0.1008833 1.077777 -0.71 -0.09176999 1.111789 -0.71 -0.07688921 1.143701 -0.71 -0.05669301 1.172544 -0.71 -0.03179514 1.197442 -0.71 -0.002952039 1.217638 -0.71 0.02895981 1.232519 -0.71 0.06297093 1.241632 -0.71 0.09804791 1.244701 -0.71 0.09804791 1.244701 -0.75 0.06297093 1.241632 -0.75 0.02895981 1.232519 -0.75 -0.002952039 1.217638 -0.75 -0.03179514 1.197442 -0.75 -0.05669301 1.172544 -0.75 -0.07688921 1.143701 -0.75 -0.09176999 1.111789 -0.75 -0.1008833 1.077777 -0.75 -0.1039521 1.042701 -0.75 -0.1039521 0.5427006 -0.71 -0.1039521 1.042701 -0.71 -0.1039521 1.042701 -0.75 -0.1039521 0.5427006 -0.75 -0.6039521 0.5427006 -0.71 -0.1039521 0.5427006 -0.71 -0.1039521 0.5427006 -0.75 -0.6039521 0.5427006 -0.75 -0.6039521 1.042701 -0.71 -0.6039521 0.5427006 -0.71 -0.6039521 0.5427006 -0.75 -0.6039521 1.042701 -0.75 -0.8059521 1.244701 -0.71 -0.7708752 1.241632 -0.71 -0.736864 1.232519 -0.71 -0.7049521 1.217638 -0.71 -0.676109 1.197442 -0.71 -0.6512112 1.172544 -0.71 -0.631015 1.143701 -0.71 -0.6161342 1.111789 -0.71 -0.6070209 1.077777 -0.71 -0.6039521 1.042701 -0.71 -0.6039521 1.042701 -0.75 -0.6070209 1.077777 -0.75 -0.6161342 1.111789 -0.75 -0.631015 1.143701 -0.75 -0.6512112 1.172544 -0.75 -0.676109 1.197442 -0.75 -0.7049521 1.217638 -0.75 -0.736864 1.232519 -0.75 -0.7708752 1.241632 -0.75 -0.8059521 1.244701 -0.75 -1.203952 1.244701 -0.71 -0.8059521 1.244701 -0.71 -0.8059521 1.244701 -0.75 -1.203952 1.244701 -0.75 -0.8059521 1.144701 -0.71 -1.203952 1.144701 -0.71 -1.203952 1.144701 -0.75 -0.8059521 1.144701 -0.75 -0.7039521 1.042701 -0.71 -0.7055017 1.060413 -0.71 -0.7101035 1.077587 -0.71 -0.7176175 1.093701 -0.71 -0.7278156 1.108265 -0.71 -0.7403877 1.120837 -0.71 -0.7549521 1.131035 -0.71 -0.7710661 1.138549 -0.71 -0.78824 1.143151 -0.71 -0.8059521 1.144701 -0.71 -0.8059521 1.144701 -0.75 -0.78824 1.143151 -0.75 -0.7710661 1.138549 -0.75 -0.7549521 1.131035 -0.75 -0.7403877 1.120837 -0.75 -0.7278156 1.108265 -0.75 -0.7176175 1.093701 -0.75 -0.7101035 1.077587 -0.75 -0.7055017 1.060413 -0.75 -0.7039521 1.042701 -0.75 -0.7039521 0.5427006 -0.71 -0.7039521 1.042701 -0.71 -0.7039521 1.042701 -0.75 -0.7039521 0.5427006 -0.75 -0.1039521 0.1047006 -0.71 -0.1039521 0.4427006 -0.71 -0.1039521 0.4427006 -0.75 -0.1039521 0.1047006 -0.75 -0.003952026 0.4427006 -0.71 -0.003952026 0.1047006 -0.71 -0.003952026 0.1047006 -0.75 -0.003952026 0.4427006 -0.75 -0.003952026 1.042701 -0.71 -0.003952026 0.5427006 -0.71 -0.003952026 0.5427006 -0.75 -0.003952026 1.042701 -0.75 -0.003952026 0.5427006 -0.71 0.8258108 0.5427006 -0.71 0.8258108 0.5427006 -0.75 -0.003952026 0.5427006 -0.75 0.8117567 0.4427006 -0.71 -0.003952026 0.4427006 -0.71 -0.003952026 0.4427006 -0.75 0.8117567 0.4427006 -0.75 -0.7039521 0.4427006 -0.71 -1.203952 0.4427006 -0.71 -1.203952 0.4427006 -0.75 -0.7039521 0.4427006 -0.75 -0.1039521 0.4427006 -0.71 -0.6039521 0.4427006 -0.71 -0.6039521 0.4427006 -0.75 -0.1039521 0.4427006 -0.75 -1.203952 0.5427006 -0.71 -0.7039521 0.5427006 -0.71 -0.7039521 0.5427006 -0.75 -1.203952 0.5427006 -0.75 -0.6039521 0.4427006 -0.71 -0.6039521 0.1047006 -0.71 -0.6039521 0.1047006 -0.75 -0.6039521 0.4427006 -0.75 -0.7039521 0.1047006 -0.71 -0.7039521 0.4427006 -0.71 -0.7039521 0.4427006 -0.75 -0.7039521 0.1047006 -0.75 0.8117567 0.4427006 -0.71 0.8117567 0.4427006 -0.75 0.7642539 0.1047006 -0.75 0.7642539 0.1047006 -0.71 0.9104164 1.144701 -0.71 0.9104164 1.144701 -0.75 0.8258108 0.5427006 -0.75 0.8258108 0.5427006 -0.71 0.9244704 1.244701 -0.75 0.9244704 1.244701 -0.71 0.9610111 1.504701 -0.71 0.9610111 1.504701 -0.75 -1.203952 0.4427006 -0.75 -1.203952 0.4427006 -0.71 -1.203952 0.1047006 -0.71 -1.203952 0.1047006 -0.75 -1.203952 1.244701 -0.71 -1.203952 1.244701 -0.75 -1.203952 1.504701 -0.75 -1.203952 1.504701 -0.71 -1.203952 1.144701 -0.75 -1.203952 1.144701 -0.71 -1.203952 0.5427006 -0.71 -1.203952 0.5427006 -0.75 -0.003952026 0.1047006 -0.75 -0.003952026 0.1047006 -0.71 -0.1039521 0.1047006 -0.71 -0.1039521 0.1047006 -0.75 -0.6039521 0.1047006 -0.75 -0.6039521 0.1047006 -0.71 -0.7039521 0.1047006 -0.71 -0.7039521 0.1047006 -0.75 -1.203952 0.1047006 -0.75 -1.203952 0.1047006 -0.71 -1.263952 0.1047006 -0.71 -1.263952 0.1047006 -0.65 -1.303952 0.1047006 -0.65 -1.303952 0.1047006 0.65 -1.263952 0.1047006 0.65 -1.263952 0.1047006 0.71 -1.203952 0.1047006 0.71 -1.203952 0.1047006 0.75 -0.7039521 0.1047006 0.75 -0.7039521 0.1047006 0.71 -0.6039521 0.1047006 0.71 -0.6039521 0.1047006 0.75 -0.1039521 0.1047006 0.75 -0.1039521 0.1047006 0.71 -0.003952026 0.1047006 0.71 -0.003952026 0.1047006 0.75 0.7642539 0.1047006 0.75 0.7642539 0.1047006 0.71 0.9696037 0.1047006 0.71 0.9802735 0.1047006 0.71 0.9802735 0.1047006 0.75 1.296048 0.1047006 0.75 1.296048 0.1047006 -0.75 0.9802735 0.1047006 -0.75 0.9802735 0.1047006 -0.71 0.9696037 0.1047006 -0.71 0.7642539 0.1047006 -0.71 0.7642539 0.1047006 -0.75 -1.263952 1.504701 -0.65 -1.263952 1.504701 0.65 -1.303952 1.504701 0.65 -1.303952 1.504701 -0.65 -1.263952 0.5427006 0.65 -1.263952 1.204701 0.65 -1.263952 1.204701 -0.65 -1.263952 0.5427006 -0.65 -1.263952 1.304701 0.65 -1.263952 1.504701 0.65 -1.263952 1.504701 -0.65 -1.263952 1.304701 -0.65 -1.263952 0.4427006 0.65 -1.263952 0.4427006 -0.65 -1.263952 0.1047006 -0.65 -1.263952 0.1047006 -0.71 -1.263952 1.604701 -0.71 -1.263952 1.604701 0.71 -1.263952 0.1047006 0.71 -1.263952 0.1047006 0.65 -0.003952026 1.042701 0.71 -0.002402484 1.060413 0.71 0.002199232 1.077587 0.71 0.009713292 1.093701 0.71 0.01991128 1.108265 0.71 0.03248345 1.120837 0.71 0.04704785 1.131035 0.71 0.06316184 1.138549 0.71 0.08033579 1.143151 0.71 0.09804791 1.144701 0.71 0.09804791 1.144701 0.75 0.08033579 1.143151 0.75 0.06316184 1.138549 0.75 0.04704785 1.131035 0.75 0.03248345 1.120837 0.75 0.01991128 1.108265 0.75 0.009713292 1.093701 0.75 0.002199232 1.077587 0.75 -0.002402484 1.060413 0.75 -0.003952026 1.042701 0.75 0.09804791 1.144701 0.71 0.9104164 1.144701 0.71 0.9104164 1.144701 0.75 0.09804791 1.144701 0.75 0.9244704 1.244701 0.71 0.09804791 1.244701 0.71 0.09804791 1.244701 0.75 0.9244704 1.244701 0.75 0.09804791 1.244701 0.71 0.06297093 1.241632 0.71 0.02895981 1.232519 0.71 -0.002952039 1.217638 0.71 -0.03179514 1.197442 0.71 -0.05669301 1.172544 0.71 -0.07688921 1.143701 0.71 -0.09176999 1.111789 0.71 -0.1008833 1.077777 0.71 -0.1039521 1.042701 0.71 -0.1039521 1.042701 0.75 -0.1008833 1.077777 0.75 -0.09176999 1.111789 0.75 -0.07688921 1.143701 0.75 -0.05669301 1.172544 0.75 -0.03179514 1.197442 0.75 -0.002952039 1.217638 0.75 0.02895981 1.232519 0.75 0.06297093 1.241632 0.75 0.09804791 1.244701 0.75 -0.1039521 1.042701 0.71 -0.1039521 0.5427006 0.71 -0.1039521 0.5427006 0.75 -0.1039521 1.042701 0.75 -0.1039521 0.5427006 0.71 -0.6039521 0.5427006 0.71 -0.6039521 0.5427006 0.75 -0.1039521 0.5427006 0.75 -0.6039521 0.5427006 0.71 -0.6039521 1.042701 0.71 -0.6039521 1.042701 0.75 -0.6039521 0.5427006 0.75 -0.6039521 1.042701 0.71 -0.6070209 1.077777 0.71 -0.6161342 1.111789 0.71 -0.631015 1.143701 0.71 -0.6512112 1.172544 0.71 -0.676109 1.197442 0.71 -0.7049521 1.217638 0.71 -0.736864 1.232519 0.71 -0.7708752 1.241632 0.71 -0.8059521 1.244701 0.71 -0.8059521 1.244701 0.75 -0.7708752 1.241632 0.75 -0.736864 1.232519 0.75 -0.7049521 1.217638 0.75 -0.676109 1.197442 0.75 -0.6512112 1.172544 0.75 -0.631015 1.143701 0.75 -0.6161342 1.111789 0.75 -0.6070209 1.077777 0.75 -0.6039521 1.042701 0.75 -0.8059521 1.244701 0.71 -1.203952 1.244701 0.71 -1.203952 1.244701 0.75 -0.8059521 1.244701 0.75 -1.203952 1.144701 0.71 -0.8059521 1.144701 0.71 -0.8059521 1.144701 0.75 -1.203952 1.144701 0.75 -0.8059521 1.144701 0.71 -0.78824 1.143151 0.71 -0.7710661 1.138549 0.71 -0.7549521 1.131035 0.71 -0.7403877 1.120837 0.71 -0.7278156 1.108265 0.71 -0.7176175 1.093701 0.71 -0.7101035 1.077587 0.71 -0.7055017 1.060413 0.71 -0.7039521 1.042701 0.71 -0.7039521 1.042701 0.75 -0.7055017 1.060413 0.75 -0.7101035 1.077587 0.75 -0.7176175 1.093701 0.75 -0.7278156 1.108265 0.75 -0.7403877 1.120837 0.75 -0.7549521 1.131035 0.75 -0.7710661 1.138549 0.75 -0.78824 1.143151 0.75 -0.8059521 1.144701 0.75 -0.7039521 1.042701 0.71 -0.7039521 0.5427006 0.71 -0.7039521 0.5427006 0.75 -0.7039521 1.042701 0.75 -0.1039521 0.4427006 0.71 -0.1039521 0.1047006 0.71 -0.1039521 0.1047006 0.75 -0.1039521 0.4427006 0.75 -0.003952026 0.1047006 0.71 -0.003952026 0.4427006 0.71 -0.003952026 0.4427006 0.75 -0.003952026 0.1047006 0.75 -0.003952026 0.5427006 0.71 -0.003952026 1.042701 0.71 -0.003952026 1.042701 0.75 -0.003952026 0.5427006 0.75 0.8258108 0.5427006 0.71 -0.003952026 0.5427006 0.71 -0.003952026 0.5427006 0.75 0.8258108 0.5427006 0.75 -0.003952026 0.4427006 0.71 0.8117567 0.4427006 0.71 0.8117567 0.4427006 0.75 -0.003952026 0.4427006 0.75 -1.203952 0.4427006 0.71 -0.7039521 0.4427006 0.71 -0.7039521 0.4427006 0.75 -1.203952 0.4427006 0.75 -0.6039521 0.4427006 0.71 -0.1039521 0.4427006 0.71 -0.1039521 0.4427006 0.75 -0.6039521 0.4427006 0.75 -0.7039521 0.5427006 0.71 -1.203952 0.5427006 0.71 -1.203952 0.5427006 0.75 -0.7039521 0.5427006 0.75 -0.6039521 0.1047006 0.71 -0.6039521 0.4427006 0.71 -0.6039521 0.4427006 0.75 -0.6039521 0.1047006 0.75 -0.7039521 0.4427006 0.71 -0.7039521 0.1047006 0.71 -0.7039521 0.1047006 0.75 -0.7039521 0.4427006 0.75 0.8117567 0.4427006 0.75 0.8117567 0.4427006 0.71 0.7642539 0.1047006 0.71 0.7642539 0.1047006 0.75 0.9104164 1.144701 0.75 0.9104164 1.144701 0.71 0.8258108 0.5427006 0.71 0.8258108 0.5427006 0.75 0.9244704 1.244701 0.71 0.9244704 1.244701 0.75 0.9610111 1.504701 0.75 0.9610111 1.504701 0.71 -1.203952 0.4427006 0.71 -1.203952 0.4427006 0.75 -1.203952 0.1047006 0.75 -1.203952 0.1047006 0.71 -1.203952 1.244701 0.75 -1.203952 1.244701 0.71 -1.203952 1.504701 0.71 -1.203952 1.504701 0.75 -1.203952 1.144701 0.71 -1.203952 1.144701 0.75 -1.203952 0.5427006 0.75 -1.203952 0.5427006 0.71 0.9610111 1.504701 -0.71 -1.203952 1.504701 -0.71 -1.203952 1.504701 -0.75 0.9610111 1.504701 -0.75 0.9104164 1.144701 -0.71 0.8258108 0.5427006 -0.71 -0.003952026 0.5427006 -0.71 -0.003952026 1.042701 -0.71 -0.002402484 1.060413 -0.71 0.002199232 1.077587 -0.71 0.009713292 1.093701 -0.71 0.01991128 1.108265 -0.71 0.03248345 1.120837 -0.71 0.04704785 1.131035 -0.71 0.06316184 1.138549 -0.71 0.08033579 1.143151 -0.71 0.09804791 1.144701 -0.71 0.9244704 1.244701 -0.71 0.09804791 1.244701 -0.71 0.06297093 1.241632 -0.71 0.02895981 1.232519 -0.71 -0.002952039 1.217638 -0.71 -0.03179514 1.197442 -0.71 -0.05669301 1.172544 -0.71 -0.07688921 1.143701 -0.71 -0.09176999 1.111789 -0.71 -0.1008833 1.077777 -0.71 -0.1039521 1.042701 -0.71 -0.1039521 0.5427006 -0.71 -0.6039521 0.5427006 -0.71 -0.6039521 1.042701 -0.71 -0.6070209 1.077777 -0.71 -0.6161342 1.111789 -0.71 -0.631015 1.143701 -0.71 -0.6512112 1.172544 -0.71 -0.676109 1.197442 -0.71 -0.7049521 1.217638 -0.71 -0.736864 1.232519 -0.71 -0.7708752 1.241632 -0.71 -0.8059521 1.244701 -0.71 -1.203952 1.244701 -0.71 -1.203952 1.504701 -0.71 0.9610111 1.504701 -0.71 0.8117567 0.4427006 -0.71 0.7642539 0.1047006 -0.71 0.9696037 0.1047006 -0.71 0.9802735 0.1047006 -0.71 0.9696037 0.1052713 -0.71 0.9590557 0.1069775 -0.71 0.94875 0.1097992 -0.71 0.9388042 0.1137045 -0.71 0.9293318 0.1186486 -0.71 0.920441 0.1245751 -0.71 0.9122334 0.1314166 -0.71 0.9048026 0.1390947 -0.71 0.8982334 0.1475217 -0.71 0.8926008 0.1566017 -0.71 0.8879693 0.1662307 -0.71 0.8843916 0.176299 -0.71 0.8819085 0.1866916 -0.71 0.8805485 0.1972897 -0.71 0.8803271 0.2079725 -0.71 0.8812467 0.2186179 -0.71 1.076048 1.604701 -0.71 -1.263952 1.604701 -0.71 -1.263952 0.1047006 -0.71 -1.203952 0.1047006 -0.71 -1.203952 0.4427006 -0.71 -0.7039521 0.4427006 -0.71 -0.7039521 0.1047006 -0.71 -0.6039521 0.1047006 -0.71 -0.6039521 0.4427006 -0.71 -0.1039521 0.4427006 -0.71 -0.1039521 0.1047006 -0.71 -0.003952026 0.1047006 -0.71 -0.003952026 0.4427006 -0.71 -1.203952 1.144701 -0.71 -0.8059521 1.144701 -0.71 -0.78824 1.143151 -0.71 -0.7710661 1.138549 -0.71 -0.7549521 1.131035 -0.71 -0.7403877 1.120837 -0.71 -0.7278156 1.108265 -0.71 -0.7176175 1.093701 -0.71 -0.7101035 1.077587 -0.71 -0.7055017 1.060413 -0.71 -0.7039521 1.042701 -0.71 -0.7039521 0.5427006 -0.71 -1.203952 0.5427006 -0.71 -1.203952 1.504701 0.71 0.9610111 1.504701 0.71 0.9610111 1.504701 0.75 -1.203952 1.504701 0.75 0.9244704 1.244701 0.71 0.9610111 1.504701 0.71 -1.203952 1.504701 0.71 -1.203952 1.244701 0.71 -0.8059521 1.244701 0.71 -0.7708752 1.241632 0.71 -0.736864 1.232519 0.71 -0.7049521 1.217638 0.71 -0.676109 1.197442 0.71 -0.6512112 1.172544 0.71 -0.631015 1.143701 0.71 -0.6161342 1.111789 0.71 -0.6070209 1.077777 0.71 -0.6039521 1.042701 0.71 -0.6039521 0.5427006 0.71 -0.1039521 0.5427006 0.71 -0.1039521 1.042701 0.71 -0.1008833 1.077777 0.71 -0.09176999 1.111789 0.71 -0.07688921 1.143701 0.71 -0.05669301 1.172544 0.71 -0.03179514 1.197442 0.71 -0.002952039 1.217638 0.71 0.02895981 1.232519 0.71 0.06297093 1.241632 0.71 0.09804791 1.244701 0.71 -1.203952 1.144701 0.71 -1.203952 0.5427006 0.71 -0.7039521 0.5427006 0.71 -0.7039521 1.042701 0.71 -0.7055017 1.060413 0.71 -0.7101035 1.077587 0.71 -0.7176175 1.093701 0.71 -0.7278156 1.108265 0.71 -0.7403877 1.120837 0.71 -0.7549521 1.131035 0.71 -0.7710661 1.138549 0.71 -0.78824 1.143151 0.71 -0.8059521 1.144701 0.71 0.9104164 1.144701 0.71 0.09804791 1.144701 0.71 0.08033579 1.143151 0.71 0.06316184 1.138549 0.71 0.04704785 1.131035 0.71 0.03248345 1.120837 0.71 0.01991128 1.108265 0.71 0.009713292 1.093701 0.71 0.002199232 1.077587 0.71 -0.002402484 1.060413 0.71 -0.003952026 1.042701 0.71 -0.003952026 0.5427006 0.71 0.8258108 0.5427006 0.71 0.8117567 0.4427006 0.71 -0.003952026 0.4427006 0.71 -0.003952026 0.1047006 0.71 -0.1039521 0.1047006 0.71 -0.1039521 0.4427006 0.71 -0.6039521 0.4427006 0.71 -0.6039521 0.1047006 0.71 -0.7039521 0.1047006 0.71 -0.7039521 0.4427006 0.71 -1.203952 0.4427006 0.71 -1.203952 0.1047006 0.71 -1.263952 0.1047006 0.71 -1.263952 1.604701 0.71 1.076048 1.604701 0.71 0.8812467 0.2186179 0.71 0.8803271 0.2079725 0.71 0.8805485 0.1972897 0.71 0.8819085 0.1866916 0.71 0.8843916 0.176299 0.71 0.8879693 0.1662307 0.71 0.8926008 0.1566017 0.71 0.8982334 0.1475217 0.71 0.9048026 0.1390947 0.71 0.9122334 0.1314166 0.71 0.920441 0.1245751 0.71 0.9293318 0.1186486 0.71 0.9388042 0.1137045 0.71 0.94875 0.1097992 0.71 0.9590557 0.1069775 0.71 0.9696037 0.1052713 0.71 0.9802735 0.1047006 0.71 0.9696037 0.1047006 0.71 0.7642539 0.1047006 0.71 0.8812467 0.2186179 -0.71 0.8803271 0.2079725 -0.71 0.8805485 0.1972897 -0.71 0.8819085 0.1866916 -0.71 0.8843916 0.176299 -0.71 0.8879693 0.1662307 -0.71 0.8926008 0.1566017 -0.71 0.8982334 0.1475217 -0.71 0.9048026 0.1390947 -0.71 0.9122334 0.1314166 -0.71 0.920441 0.1245751 -0.71 0.9293318 0.1186486 -0.71 0.9388042 0.1137045 -0.71 0.94875 0.1097992 -0.71 0.9590557 0.1069775 -0.71 0.9696037 0.1052713 -0.71 0.9802735 0.1047006 -0.71 0.9802735 0.1047006 -0.75 0.9632526 0.1061598 -0.75 0.9467284 0.1104948 -0.75 0.9311831 0.1175792 -0.75 0.9170706 0.1272061 -0.75 0.9048026 0.1390947 -0.75 0.8947371 0.1528978 -0.75 0.8871679 0.1682129 -0.75 0.882316 0.1845928 -0.75 0.8803228 0.2015595 -0.75 0.8812467 0.2186179 -0.75 0.9802735 0.1047006 0.71 0.9696037 0.1052713 0.71 0.9590557 0.1069775 0.71 0.94875 0.1097992 0.71 0.9388042 0.1137045 0.71 0.9293318 0.1186486 0.71 0.920441 0.1245751 0.71 0.9122334 0.1314166 0.71 0.9048026 0.1390947 0.71 0.8982334 0.1475217 0.71 0.8926008 0.1566017 0.71 0.8879693 0.1662307 0.71 0.8843916 0.176299 0.71 0.8819085 0.1866916 0.71 0.8805485 0.1972897 0.71 0.8803271 0.2079725 0.71 0.8812467 0.2186179 0.71 0.8812467 0.2186179 0.75 0.8803228 0.2015595 0.75 0.882316 0.1845928 0.75 0.8871679 0.1682129 0.75 0.8947371 0.1528978 0.75 0.9048026 0.1390947 0.75 0.9170706 0.1272061 0.75 0.9311831 0.1175792 0.75 0.9467284 0.1104948 0.75 0.9632526 0.1061598 0.75 0.9802735 0.1047006 0.75 0.8812467 0.2186179 0.75 0.8812467 0.2186179 0.71 1.076048 1.604701 0.71 1.076048 1.604701 0.75 0.8812467 0.2186179 -0.71 0.8812467 0.2186179 -0.75 1.076048 1.604701 -0.75 1.076048 1.604701 -0.71 0.9104164 1.144701 0.75 0.8258108 0.5427006 0.75 -0.003952026 0.5427006 0.75 -0.003952026 1.042701 0.75 -0.002402484 1.060413 0.75 0.002199232 1.077587 0.75 0.009713292 1.093701 0.75 0.01991128 1.108265 0.75 0.03248345 1.120837 0.75 0.04704785 1.131035 0.75 0.06316184 1.138549 0.75 0.08033579 1.143151 0.75 0.09804791 1.144701 0.75 0.9244704 1.244701 0.75 0.09804791 1.244701 0.75 0.06297093 1.241632 0.75 0.02895981 1.232519 0.75 -0.002952039 1.217638 0.75 -0.03179514 1.197442 0.75 -0.05669301 1.172544 0.75 -0.07688921 1.143701 0.75 -0.09176999 1.111789 0.75 -0.1008833 1.077777 0.75 -0.1039521 1.042701 0.75 -0.1039521 0.5427006 0.75 -0.6039521 0.5427006 0.75 -0.6039521 1.042701 0.75 -0.6070209 1.077777 0.75 -0.6161342 1.111789 0.75 -0.631015 1.143701 0.75 -0.6512112 1.172544 0.75 -0.676109 1.197442 0.75 -0.7049521 1.217638 0.75 -0.736864 1.232519 0.75 -0.7708752 1.241632 0.75 -0.8059521 1.244701 0.75 -1.203952 1.244701 0.75 -1.203952 1.504701 0.75 0.9610111 1.504701 0.75 -0.1039521 0.1047006 0.75 -0.6039521 0.1047006 0.75 -0.6039521 0.4427006 0.75 -0.1039521 0.4427006 0.75 -0.003952026 0.1047006 0.75 -0.003952026 0.4427006 0.75 0.8117567 0.4427006 0.75 0.7642539 0.1047006 0.75 -1.203952 1.144701 0.75 -0.8059521 1.144701 0.75 -0.78824 1.143151 0.75 -0.7710661 1.138549 0.75 -0.7549521 1.131035 0.75 -0.7403877 1.120837 0.75 -0.7278156 1.108265 0.75 -0.7176175 1.093701 0.75 -0.7101035 1.077587 0.75 -0.7055017 1.060413 0.75 -0.7039521 1.042701 0.75 -0.7039521 0.5427006 0.75 -1.203952 0.5427006 0.75 -1.203952 0.4427006 0.75 -0.7039521 0.4427006 0.75 -0.7039521 0.1047006 0.75 -1.203952 0.1047006 0.75 0.9802735 0.1047006 0.75 0.9632526 0.1061598 0.75 0.9467284 0.1104948 0.75 0.9311831 0.1175792 0.75 0.9170706 0.1272061 0.75 0.9048026 0.1390947 0.75 0.8947371 0.1528978 0.75 0.8871679 0.1682129 0.75 0.882316 0.1845928 0.75 0.8803228 0.2015595 0.75 0.8812467 0.2186179 0.75 1.076048 1.604701 0.75 -1.303952 1.604701 0.75 -1.303952 0.004700541 0.75 1.296048 0.004700541 0.75 1.296048 0.1047006 0.75 0.9244704 1.244701 -0.75 0.9610111 1.504701 -0.75 -1.203952 1.504701 -0.75 -1.203952 1.244701 -0.75 -0.8059521 1.244701 -0.75 -0.7708752 1.241632 -0.75 -0.736864 1.232519 -0.75 -0.7049521 1.217638 -0.75 -0.676109 1.197442 -0.75 -0.6512112 1.172544 -0.75 -0.631015 1.143701 -0.75 -0.6161342 1.111789 -0.75 -0.6070209 1.077777 -0.75 -0.6039521 1.042701 -0.75 -0.6039521 0.5427006 -0.75 -0.1039521 0.5427006 -0.75 -0.1039521 1.042701 -0.75 -0.1008833 1.077777 -0.75 -0.09176999 1.111789 -0.75 -0.07688921 1.143701 -0.75 -0.05669301 1.172544 -0.75 -0.03179514 1.197442 -0.75 -0.002952039 1.217638 -0.75 0.02895981 1.232519 -0.75 0.06297093 1.241632 -0.75 0.09804791 1.244701 -0.75 -1.203952 1.144701 -0.75 -1.203952 0.5427006 -0.75 -0.7039521 0.5427006 -0.75 -0.7039521 1.042701 -0.75 -0.7055017 1.060413 -0.75 -0.7101035 1.077587 -0.75 -0.7176175 1.093701 -0.75 -0.7278156 1.108265 -0.75 -0.7403877 1.120837 -0.75 -0.7549521 1.131035 -0.75 -0.7710661 1.138549 -0.75 -0.78824 1.143151 -0.75 -0.8059521 1.144701 -0.75 -0.003952026 0.1047006 -0.75 0.7642539 0.1047006 -0.75 0.8117567 0.4427006 -0.75 -0.003952026 0.4427006 -0.75 0.9104164 1.144701 -0.75 0.09804791 1.144701 -0.75 0.08033579 1.143151 -0.75 0.06316184 1.138549 -0.75 0.04704785 1.131035 -0.75 0.03248345 1.120837 -0.75 0.01991128 1.108265 -0.75 0.009713292 1.093701 -0.75 0.002199232 1.077587 -0.75 -0.002402484 1.060413 -0.75 -0.003952026 1.042701 -0.75 -0.003952026 0.5427006 -0.75 0.8258108 0.5427006 -0.75 -1.203952 0.4427006 -0.75 -1.203952 0.1047006 -0.75 -0.7039521 0.1047006 -0.75 -0.7039521 0.4427006 -0.75 -0.1039521 0.1047006 -0.75 -0.1039521 0.4427006 -0.75 -0.6039521 0.4427006 -0.75 -0.6039521 0.1047006 -0.75 1.076048 1.604701 -0.75 0.8812467 0.2186179 -0.75 0.8803228 0.2015595 -0.75 0.882316 0.1845928 -0.75 0.8871679 0.1682129 -0.75 0.8947371 0.1528978 -0.75 0.9048026 0.1390947 -0.75 0.9170706 0.1272061 -0.75 0.9311831 0.1175792 -0.75 0.9467284 0.1104948 -0.75 0.9632526 0.1061598 -0.75 0.9802735 0.1047006 -0.75 1.296048 0.1047006 -0.75 1.296048 0.004700541 -0.75 -1.303952 0.004700541 -0.75 -1.303952 1.604701 -0.75 -1.303952 1.604701 0.75 1.076048 1.604701 0.75 1.076048 1.604701 0.71 -1.263952 1.604701 0.71 -1.263952 1.604701 -0.71 1.076048 1.604701 -0.71 1.076048 1.604701 -0.75 -1.303952 1.604701 -0.75 -1.303952 0.4427006 0.65 -1.303952 0.1047006 0.65 -1.303952 0.1047006 -0.65 -1.303952 0.4427006 -0.65 -1.303952 0.5427006 0.65 -1.303952 0.5427006 -0.65 -1.303952 1.204701 -0.65 -1.303952 1.204701 0.65 -1.303952 1.304701 0.65 -1.303952 1.304701 -0.65 -1.303952 1.504701 -0.65 -1.303952 1.504701 0.65 -1.303952 0.004700541 -0.75 -1.303952 0.004700541 0.75 -1.303952 1.604701 0.75 -1.303952 1.604701 -0.75 1.296048 0.004700541 0.75 1.296048 0.004700541 -0.75 1.296048 0.1047006 -0.75 1.296048 0.1047006 0.75 1.296048 0.004700541 0.75 -1.303952 0.004700541 0.75 -1.303952 0.004700541 -0.75 1.296048 0.004700541 -0.75</float_array>
          <technique_common>
            <accessor source="#ShapeIndexedFaceSet_025-mesh-positions-array" count="885" stride="3">
              <param name="X" type="float"/>
              <param name="Y" type="float"/>
              <param name="Z" type="float"/>
            </accessor>
          </technique_common>
        </source>
        <source id="ShapeIndexedFaceSet_025-mesh-normals">
          <float_array id="ShapeIndexedFaceSet_025-mesh-normals-array" count="753">0 -1 0 0 1 0 0 0 -1 0 0 1 0.08717519 -0.996193 0 0.08717519 -0.9961931 0 0.2588366 -0.9659211 0 0.2588362 -0.9659213 0 0.4226145 -0.9063097 0 0.4226148 -0.9063095 0 0.5735731 -0.8191544 0 0.5735752 -0.819153 0 0.7071011 -0.7071125 0 0.7070996 -0.7071141 0 0.8191472 -0.5735834 0 0.8191464 -0.5735845 0 0.9063084 -0.4226169 0 0.9063079 -0.422618 0 0.9659264 -0.2588168 0 0.9961948 -0.08715575 0 0.9961948 -0.08715593 0 -0.9961946 0.08715701 0 -0.9659273 0.2588136 0 -0.965927 0.2588152 0 -0.9063085 0.422617 0 -0.9063077 0.4226185 0 -0.8191518 0.5735769 0 -0.8191517 0.5735771 0 -0.7071086 0.707105 0 -0.7071087 0.7071049 0 -0.5735725 0.8191549 0 -0.5735726 0.8191549 0 -0.4226252 0.9063046 0 -0.4226241 0.9063051 0 -0.2588115 0.965928 0 -0.2588108 0.9659281 0 -0.08716148 0.9961942 0 -0.08716154 0.9961943 0 -1 0 0 1 0 0 0.08716207 0.9961943 0 0.0871616 0.9961942 0 0.2588106 0.9659281 0 0.25881 0.9659283 0 0.4226253 0.9063046 0 0.4226242 0.906305 0 0.5735709 0.8191561 0 0.5735733 0.8191543 0 0.7071108 0.7071028 0 0.81915 0.5735796 0 0.8191512 0.5735777 0 0.9063085 0.4226167 0 0.9063081 0.4226177 0 0.965927 0.2588152 0 0.9659272 0.258814 0 0.9961946 0.08715701 0 -0.9961946 -0.08715736 0 -0.996195 -0.08715194 0 -0.9659246 -0.2588238 0 -0.9063098 -0.4226142 0 -0.9063093 -0.4226152 0 -0.8191458 -0.5735854 0 -0.8191442 -0.5735877 0 -0.7071055 -0.7071081 0 -0.7071016 -0.7071121 0 -0.5735738 -0.8191539 0 -0.573572 -0.8191551 0 -0.4226142 -0.9063098 0 -0.4226122 -0.9063107 0 -0.2588374 -0.965921 0 -0.2588379 -0.9659208 0 -0.08717542 -0.996193 0 -0.9902682 0.1391729 0 -0.9902681 0.1391735 0 -0.9902682 0.1391729 0 -0.9902681 0.1391733 0 -0.9902681 0.1391739 0 -0.9902681 0.1391727 0 1 -1.83399e-6 0 1 1.679e-6 0 0.9961948 -0.08715569 0 0.9961948 -0.08715593 0 0.9063085 -0.422617 0 0.9063079 -0.4226179 0 0.8191474 -0.5735833 0 0.8191463 -0.5735846 0 0.7071009 -0.7071127 0 0.7070998 -0.7071139 0 0.5735734 -0.8191542 0 0.5735749 -0.8191531 0 0.2588368 -0.9659211 0 0.258836 -0.9659214 0 -0.2588114 0.965928 0 -0.2588108 0.965928 0 -0.4226251 0.9063046 0 -0.4226241 0.9063051 0 -0.9063082 0.4226175 0 -0.9063079 0.422618 0 -0.9659273 0.2588139 0 -0.965927 0.2588149 0 0.9659276 0.2588127 0 0.9659265 0.2588164 0 -0.7071028 -0.7071107 0 -0.7071042 -0.7071095 0 -0.8191434 -0.5735889 0 -0.8191467 -0.5735842 0 -0.996195 -0.08715218 0 -0.9961946 -0.08715713 0 -0.9902681 0.1391738 0 -0.9902682 0.1391726 0 -0.9902681 0.1391735 0 -0.9902681 0.1391732 0 -2.95123e-6 0 1 5.67543e-7 0 1 -5.31031e-7 0 1 1.05162e-6 0 1 1.06201e-6 0 1 1.05164e-6 0 1 -1.05163e-6 0 1 -1.05162e-6 0 1 -1.84033e-6 0 1 -2.36613e-6 0 1 4.24814e-6 0 1 -7.5586e-7 0 1 -1.06201e-6 0 1 1.06204e-6 0 1 -2.10328e-6 0 1 -1.06203e-6 0 1 1.06203e-6 0 1 -1.59304e-6 0 1 7.96522e-7 0 1 -3.45162e-6 0 1 -1.9104e-6 0 1 -1.30634e-5 0 1 8.12477e-7 0 1 6.03798e-7 0 1 -1.96422e-6 0 1 8.44846e-7 0 1 -7.5615e-7 0 1 6.60345e-7 0 1 1.27778e-6 0 1 -5.04703e-6 0 1 1.27079e-6 0 1 1.95885e-6 0 1 2.21244e-6 0 1 4.24814e-6 0 -1 -2.36613e-6 0 -1 -1.84033e-6 0 -1 2.12405e-6 0 -1 -2.12406e-6 0 -1 -1.05162e-6 0 -1 -1.05163e-6 0 -1 1.06204e-6 0 -1 1.05164e-6 0 -1 -5.3102e-7 0 -1 6.80355e-7 0 -1 1.05162e-6 0 -1 -5.31031e-7 0 -1 2.48352e-6 0 -1 -4.24815e-6 0 -1 -2.12405e-6 0 -1 2.12406e-6 0 -1 -1.06203e-6 0 -1 5.3102e-7 0 -1 -6.80349e-7 0 -1 -1.05163e-6 0 -1 5.31031e-7 0 -1 -2.95123e-6 0 -1 -8.16462e-6 0 -1 2.21244e-6 0 -1 1.95885e-6 0 -1 1.27079e-6 0 -1 -5.04703e-6 0 -1 1.27778e-6 0 -1 6.60345e-7 0 -1 -7.5615e-7 0 -1 8.44846e-7 0 -1 -1.96422e-6 0 -1 6.03798e-7 0 -1 8.12477e-7 0 -1 0.9962897 -0.08606278 0 0.9985 -0.05407816 0.008562922 0.9997794 0.02072668 -0.003428816 0.9931467 0.1166731 0.006851077 0.9918618 0.1272726 0.003426671 0.9726169 0.2324035 -0.002284526 0.9587817 0.2839971 0.009134232 0.9422793 0.33482 -0.002286851 0.901162 0.4334691 0.00342375 0.8964691 0.4430536 0.006852567 0.8497679 0.5271459 -0.003427267 0.8079561 0.5891804 0.008563816 0.7886828 0.6148005 0 0.7185828 0.6954415 0 0.6958908 0.7180966 0.008565366 0.6402797 0.7681342 -0.003427028 0.5635124 0.8260793 0.006852865 0.5546502 0.8320766 0.003425359 0.4627153 0.8865041 -0.002285778 0.4146724 0.909925 0.009134888 0.3654928 0.9308114 -0.002285242 0.2640799 0.9644948 0.003426492 0.2537482 0.9672461 0.006850957 0.1596707 0.9871644 -0.003426492 0.08541345 0.9963088 0.008566617 0.05342018 0.9985722 0 0.08541345 0.9963088 -0.008566617 0.1596707 0.9871644 0.00342673 0.2537482 0.9672461 -0.006851136 0.2640804 0.9644946 -0.003426432 0.3654928 0.9308114 0.002285242 0.4146724 0.909925 -0.009134888 0.4627153 0.8865041 0.002285778 0.5546502 0.8320766 -0.003425359 0.5635126 0.8260791 -0.006852865 0.6402797 0.7681342 0.003427028 0.6958912 0.7180963 -0.008565545 0.8079561 0.5891804 -0.008563816 0.8497679 0.5271459 0.003427267 0.8964688 0.4430541 -0.006852507 0.901162 0.4334691 -0.00342375 0.9422793 0.33482 0.002286851 0.9587817 0.2839971 -0.009134232 0.9726169 0.2324035 0.002284526 0.9918619 0.1272725 -0.003426611 0.9931467 0.1166731 -0.006851077 0.9997794 0.02072668 0.003428816 0.9985 -0.05407816 -0.008562922 0.9902681 -0.1391734 0 0.9902681 -0.139173 0 0.9902681 -0.1391731 0 0.9902681 -0.1391733 0 -1.49012e-6 0 1 2.95123e-6 0 1 -4.36572e-7 0 1 7.20703e-7 0 1 1.98022e-6 0 1 -6.00217e-6 0 1 3.15278e-6 0 1 1.98022e-6 0 -1 3.60351e-7 0 -1 -6.00217e-6 0 -1 2.95123e-6 0 -1 -4.36572e-7 0 -1 3.15278e-6 0 -1 -1.62947e-6 0 -1 0 1 -4.69574e-7 -1 1.83399e-6 0 -1 -7.94728e-7 0 -1 1.58946e-6 0 -1 -9.16994e-7 0</float_array>
          <technique_common>
            <accessor source="#ShapeIndexedFaceSet_025-mesh-normals-array" count="251" stride="3">
              <param name="X" type="float"/>
              <param name="Y" type="float"/>
              <param name="Z" type="float"/>
            </accessor>
          </technique_common>
        </source>
        <vertices id="ShapeIndexedFaceSet_025-mesh-vertices">
          <input semantic="POSITION" source="#ShapeIndexedFaceSet_025-mesh-positions"/>
        </vertices>
        <triangles material="Shape_024-material" count="764">
          <input semantic="VERTEX" source="#ShapeIndexedFaceSet_025-mesh-vertices" offset="0"/>
          <input semantic="NORMAL" source="#ShapeIndexedFaceSet_025-mesh-normals" offset="1"/>
          <p>2 0 3 0 1 0 1 0 3 0 4 0 6 1 7 1 5 1 5 1 7 1 8 1 10 1 11 1 9 1 9 1 11 1 12 1 14 0 15 0 13 0 13 0 15 0 16 0 17 2 18 2 20 2 20 2 18 2 19 2 21 2 22 2 24 2 24 2 22 2 23 2 25 2 26 2 28 2 28 2 26 2 27 2 30 3 31 3 29 3 29 3 31 3 32 3 34 3 35 3 33 3 33 3 35 3 36 3 38 3 39 3 37 3 37 3 39 3 40 3 60 4 41 4 59 4 59 5 41 5 42 5 59 6 42 6 43 6 59 7 43 7 58 7 58 8 43 8 44 8 58 9 44 9 57 9 57 10 44 10 56 10 44 11 45 11 56 11 56 12 45 12 46 12 56 13 46 13 55 13 55 14 46 14 47 14 55 15 47 15 54 15 54 16 47 16 48 16 54 17 48 17 53 17 53 18 48 18 52 18 48 18 49 18 52 18 52 19 49 19 50 19 52 20 50 20 51 20 61 0 62 0 64 0 64 0 62 0 63 0 66 1 67 1 65 1 65 1 67 1 68 1 69 21 70 21 88 21 88 21 70 21 87 21 70 22 71 22 87 22 87 23 71 23 86 23 71 24 72 24 86 24 86 25 72 25 85 25 72 26 73 26 85 26 85 27 73 27 84 27 73 28 74 28 84 28 84 29 74 29 83 29 74 30 75 30 83 30 83 31 75 31 82 31 75 32 76 32 82 32 82 33 76 33 81 33 76 34 77 34 81 34 81 35 77 35 80 35 77 36 78 36 80 36 80 37 78 37 79 37 89 38 90 38 92 38 92 38 90 38 91 38 94 1 95 1 93 1 93 1 95 1 96 1 97 39 98 39 100 39 100 39 98 39 99 39 101 40 102 40 120 40 120 41 102 41 119 41 102 42 103 42 119 42 119 43 103 43 118 43 103 44 104 44 118 44 118 45 104 45 117 45 104 46 105 46 117 46 117 47 105 47 116 47 105 48 106 48 116 48 116 48 106 48 115 48 106 49 107 49 115 49 115 50 107 50 114 50 107 51 108 51 114 51 114 52 108 52 113 52 108 53 109 53 113 53 113 54 109 54 112 54 109 55 110 55 112 55 112 55 110 55 111 55 122 1 123 1 121 1 121 1 123 1 124 1 125 0 126 0 128 0 128 0 126 0 127 0 148 56 129 56 147 56 147 57 129 57 130 57 147 58 130 58 131 58 147 58 131 58 146 58 146 59 131 59 132 59 146 60 132 60 145 60 145 61 132 61 144 61 132 62 133 62 144 62 144 63 133 63 134 63 144 64 134 64 143 64 143 65 134 65 135 65 143 66 135 66 142 66 142 67 135 67 136 67 142 68 136 68 141 68 141 69 136 69 140 69 136 70 137 70 140 70 140 71 137 71 138 71 140 71 138 71 139 71 149 38 150 38 152 38 152 38 150 38 151 38 153 38 154 38 156 38 156 38 154 38 155 38 158 39 159 39 157 39 157 39 159 39 160 39 162 39 163 39 161 39 161 39 163 39 164 39 166 1 167 1 165 1 165 1 167 1 168 1 169 0 170 0 172 0 172 0 170 0 171 0 173 0 174 0 176 0 176 0 174 0 175 0 177 0 178 0 180 0 180 0 178 0 179 0 182 1 183 1 181 1 181 1 183 1 184 1 185 39 186 39 188 39 188 39 186 39 187 39 189 38 190 38 192 38 192 38 190 38 191 38 193 72 194 72 196 72 196 73 194 73 195 73 197 74 198 74 200 74 200 75 198 75 199 75 201 76 202 76 204 76 204 77 202 77 203 77 206 39 207 39 205 39 205 39 207 39 208 39 210 39 211 39 209 39 209 39 211 39 212 39 214 39 215 39 213 39 213 39 215 39 216 39 254 1 217 1 253 1 253 1 217 1 218 1 253 1 218 1 244 1 244 1 218 1 241 1 244 1 241 1 243 1 243 1 241 1 242 1 218 1 219 1 241 1 241 1 219 1 240 1 220 1 221 1 219 1 219 1 221 1 222 1 219 1 222 1 240 1 240 1 222 1 237 1 240 1 237 1 239 1 239 1 237 1 238 1 222 1 223 1 237 1 237 1 223 1 236 1 224 1 225 1 223 1 223 1 225 1 226 1 223 1 226 1 228 1 228 1 226 1 227 1 229 1 231 1 228 1 228 1 231 1 236 1 228 1 236 1 223 1 229 1 230 1 231 1 232 1 233 1 231 1 231 1 233 1 236 1 234 1 235 1 233 1 233 1 235 1 236 1 244 1 245 1 253 1 253 1 245 1 252 1 245 1 246 1 252 1 252 1 246 1 251 1 247 1 248 1 246 1 246 1 248 1 251 1 248 1 249 1 251 1 251 1 249 1 250 1 256 0 257 0 255 0 255 0 257 0 258 0 266 39 263 39 260 39 260 39 263 39 272 39 260 39 272 39 259 39 259 39 272 39 273 39 259 39 273 39 267 39 267 39 273 39 274 39 260 39 261 39 266 39 266 39 261 39 271 39 266 39 271 39 265 39 265 78 271 78 264 78 261 39 262 39 271 39 271 39 262 39 270 39 259 39 267 39 262 39 262 39 267 39 268 39 262 39 268 39 270 39 270 39 268 39 269 39 263 39 264 39 272 39 272 79 264 79 271 79 275 80 276 80 294 80 294 81 276 81 293 81 293 18 276 18 292 18 292 18 276 18 277 18 292 82 277 82 278 82 292 83 278 83 291 83 291 84 278 84 279 84 291 85 279 85 290 85 290 86 279 86 280 86 290 87 280 87 289 87 289 88 280 88 288 88 280 89 281 89 288 89 288 9 281 9 282 9 288 8 282 8 287 8 287 90 282 90 283 90 287 91 283 91 286 91 286 5 283 5 285 5 283 4 284 4 285 4 296 0 297 0 295 0 295 0 297 0 298 0 299 1 300 1 302 1 302 1 300 1 301 1 303 37 304 37 322 37 322 36 304 36 321 36 304 92 305 92 321 92 321 93 305 93 320 93 305 94 306 94 320 94 320 95 306 95 319 95 306 31 307 31 319 31 319 30 307 30 318 30 307 29 308 29 318 29 318 28 308 28 317 28 308 27 309 27 317 27 317 26 309 26 316 26 309 96 310 96 316 96 316 97 310 97 315 97 310 98 311 98 315 98 315 99 311 99 314 99 311 21 312 21 314 21 314 21 312 21 313 21 324 38 325 38 323 38 323 38 325 38 326 38 327 1 328 1 330 1 330 1 328 1 329 1 331 39 332 39 334 39 334 39 332 39 333 39 335 55 336 55 354 55 354 55 336 55 353 55 336 100 337 100 353 100 353 101 337 101 352 101 337 51 338 51 352 51 352 52 338 52 351 52 338 50 339 50 351 50 351 49 339 49 350 49 339 48 340 48 350 48 350 48 340 48 349 48 340 47 341 47 349 47 349 46 341 46 348 46 341 44 342 44 348 44 348 45 342 45 347 45 342 42 343 42 347 42 347 43 343 43 346 43 343 41 344 41 346 41 346 40 344 40 345 40 355 1 356 1 358 1 358 1 356 1 357 1 360 0 361 0 359 0 359 0 361 0 362 0 363 71 364 71 382 71 382 71 364 71 381 71 381 69 364 69 380 69 380 70 364 70 365 70 380 68 365 68 366 68 380 67 366 67 379 67 379 65 366 65 367 65 379 66 367 66 378 66 378 102 367 102 368 102 378 103 368 103 377 103 377 104 368 104 376 104 368 105 369 105 376 105 376 59 369 59 370 59 376 60 370 60 375 60 375 58 370 58 371 58 375 58 371 58 374 58 374 106 371 106 373 106 371 107 372 107 373 107 383 38 384 38 386 38 386 38 384 38 385 38 388 38 389 38 387 38 387 38 389 38 390 38 391 39 392 39 394 39 394 39 392 39 393 39 395 39 396 39 398 39 398 39 396 39 397 39 399 1 400 1 402 1 402 1 400 1 401 1 404 0 405 0 403 0 403 0 405 0 406 0 408 0 409 0 407 0 407 0 409 0 410 0 412 0 413 0 411 0 411 0 413 0 414 0 415 1 416 1 418 1 418 1 416 1 417 1 419 39 420 39 422 39 422 39 420 39 421 39 423 38 424 38 426 38 426 38 424 38 425 38 427 108 428 108 430 108 430 109 428 109 429 109 431 75 432 75 434 75 434 74 432 74 433 74 435 110 436 110 438 110 438 111 436 111 437 111 439 39 440 39 442 39 442 39 440 39 441 39 443 39 444 39 446 39 446 39 444 39 445 39 447 39 448 39 450 39 450 39 448 39 449 39 452 0 453 0 451 0 451 0 453 0 454 0 516 3 518 3 539 3 539 3 518 3 519 3 539 3 519 3 538 3 538 3 519 3 522 3 538 3 522 3 480 3 480 3 522 3 523 3 480 3 523 3 479 3 479 3 523 3 526 3 479 3 526 3 457 3 457 3 526 3 494 3 457 3 494 3 456 3 456 112 494 112 513 112 456 3 513 3 455 3 455 3 513 3 514 3 455 3 514 3 468 3 468 113 514 113 493 113 479 3 457 3 478 3 478 3 457 3 458 3 478 3 458 3 459 3 478 114 459 114 477 114 477 115 459 115 460 115 477 116 460 116 476 116 476 3 460 3 461 3 476 3 461 3 475 3 475 117 461 117 462 117 475 3 462 3 474 3 474 118 462 118 463 118 474 3 463 3 473 3 473 119 463 119 464 119 473 3 464 3 472 3 472 3 464 3 465 3 472 3 465 3 471 3 471 120 465 120 466 120 471 3 466 3 470 3 470 121 466 121 467 121 470 122 467 122 469 122 469 3 467 3 455 3 469 3 455 3 468 3 538 3 480 3 537 3 537 3 480 3 481 3 537 3 481 3 536 3 536 3 481 3 482 3 536 123 482 123 535 123 535 124 482 124 483 124 535 3 483 3 534 3 534 125 483 125 484 125 534 126 484 126 533 126 533 127 484 127 485 127 533 3 485 3 532 3 532 3 485 3 486 3 532 3 486 3 531 3 531 128 486 128 487 128 531 3 487 3 530 3 530 129 487 129 488 129 530 3 488 3 529 3 529 130 488 130 489 130 529 3 489 3 528 3 528 131 489 131 490 131 528 3 490 3 527 3 527 3 490 3 491 3 527 3 491 3 515 3 515 132 491 132 492 132 515 3 492 3 493 3 494 3 495 3 513 3 513 133 495 133 512 133 497 3 498 3 496 3 496 3 498 3 499 3 496 3 499 3 495 3 495 134 499 134 500 134 495 135 500 135 501 135 501 136 502 136 495 136 495 137 502 137 503 137 495 138 503 138 504 138 504 3 505 3 495 3 495 139 505 139 506 139 495 140 506 140 507 140 507 141 508 141 495 141 495 142 508 142 509 142 495 143 509 143 510 143 510 3 511 3 495 3 495 144 511 144 512 144 514 3 515 3 493 3 515 3 516 3 527 3 527 3 516 3 539 3 516 3 517 3 518 3 520 3 521 3 519 3 519 3 521 3 522 3 524 3 525 3 523 3 523 3 525 3 526 3 540 0 541 0 543 0 543 0 541 0 542 0 546 2 608 2 545 2 545 2 608 2 609 2 545 2 609 2 544 2 544 2 609 2 583 2 544 2 583 2 569 2 569 2 583 2 584 2 569 145 584 145 568 145 568 146 584 146 585 146 568 2 585 2 567 2 567 147 585 147 586 147 567 148 586 148 566 148 566 2 586 2 587 2 566 149 587 149 565 149 565 150 587 150 588 150 565 2 588 2 564 2 564 151 588 151 589 151 564 152 589 152 563 152 563 153 589 153 590 153 563 154 590 154 562 154 562 2 590 2 591 2 562 155 591 155 561 155 561 156 591 156 592 156 561 157 592 157 560 157 560 2 592 2 593 2 560 2 593 2 559 2 559 2 593 2 594 2 559 2 594 2 600 2 600 2 594 2 597 2 600 2 597 2 599 2 599 2 597 2 598 2 546 2 547 2 608 2 608 158 547 158 570 158 608 2 570 2 607 2 607 2 570 2 571 2 607 2 571 2 605 2 605 2 571 2 572 2 605 2 572 2 604 2 604 2 572 2 558 2 604 2 558 2 601 2 601 2 558 2 559 2 601 2 559 2 600 2 547 2 548 2 570 2 570 2 548 2 582 2 548 159 549 159 582 159 582 2 549 2 581 2 549 2 550 2 581 2 581 2 550 2 580 2 550 160 551 160 580 160 580 2 551 2 579 2 551 161 552 161 579 161 579 2 552 2 578 2 552 2 553 2 578 2 578 2 553 2 577 2 553 162 554 162 577 162 577 2 554 2 576 2 554 163 555 163 576 163 576 2 555 2 575 2 555 164 556 164 575 164 575 165 556 165 574 165 556 166 557 166 574 166 574 2 557 2 573 2 573 2 557 2 572 2 572 2 557 2 558 2 597 2 594 2 596 2 596 2 594 2 595 2 596 167 595 167 610 167 610 2 595 2 583 2 610 2 583 2 609 2 602 2 603 2 601 2 601 2 603 2 604 2 605 2 606 2 607 2 596 2 610 2 628 2 628 168 610 168 611 168 628 169 611 169 612 169 612 2 613 2 628 2 628 170 613 170 614 170 628 171 614 171 615 171 615 172 616 172 628 172 628 173 616 173 617 173 628 174 617 174 618 174 618 2 619 2 628 2 628 175 619 175 620 175 628 176 620 176 621 176 621 177 622 177 628 177 628 178 622 178 623 178 628 179 623 179 624 179 628 2 624 2 627 2 627 2 624 2 625 2 627 2 625 2 626 2 629 180 630 180 656 180 656 181 630 181 655 181 630 182 631 182 655 182 655 183 631 183 654 183 631 184 632 184 654 184 654 185 632 185 633 185 654 186 633 186 653 186 653 187 633 187 634 187 653 188 634 188 635 188 653 189 635 189 652 189 652 190 635 190 636 190 652 191 636 191 651 191 651 192 636 192 637 192 651 193 637 193 638 193 651 194 638 194 650 194 650 195 638 195 639 195 650 196 639 196 649 196 649 197 639 197 640 197 649 198 640 198 641 198 649 199 641 199 648 199 648 200 641 200 642 200 648 201 642 201 643 201 648 202 643 202 647 202 647 203 643 203 644 203 647 204 644 204 646 204 646 205 644 205 645 205 657 205 658 205 684 205 684 206 658 206 683 206 658 207 659 207 683 207 683 208 659 208 682 208 659 209 660 209 682 209 682 210 660 210 661 210 682 211 661 211 681 211 681 212 661 212 662 212 681 213 662 213 663 213 681 214 663 214 680 214 680 215 663 215 664 215 680 216 664 216 679 216 679 193 664 193 665 193 679 192 665 192 666 192 679 217 666 217 678 217 678 218 666 218 667 218 678 219 667 219 677 219 677 220 667 220 668 220 677 221 668 221 669 221 677 222 669 222 676 222 676 223 669 223 670 223 676 224 670 224 671 224 676 225 671 225 675 225 675 226 671 226 672 226 675 227 672 227 674 227 674 180 672 180 673 180 685 228 686 228 688 228 688 229 686 229 687 229 689 230 690 230 692 230 692 231 690 231 691 231 755 3 756 3 770 3 770 3 756 3 753 3 770 232 753 232 752 232 752 3 753 3 754 3 752 3 754 3 751 3 751 3 754 3 734 3 751 3 734 3 718 3 718 3 734 3 735 3 718 3 735 3 717 3 717 3 735 3 737 3 717 3 737 3 695 3 695 3 737 3 738 3 695 3 738 3 694 3 694 233 738 233 767 233 694 3 767 3 693 3 693 3 767 3 768 3 693 3 768 3 706 3 706 3 768 3 731 3 717 3 695 3 716 3 716 3 695 3 696 3 716 3 696 3 697 3 716 3 697 3 715 3 715 3 697 3 698 3 715 3 698 3 714 3 714 3 698 3 699 3 714 3 699 3 713 3 713 3 699 3 700 3 713 3 700 3 712 3 712 3 700 3 701 3 712 3 701 3 711 3 711 3 701 3 702 3 711 3 702 3 710 3 710 3 702 3 703 3 710 3 703 3 709 3 709 3 703 3 704 3 709 3 704 3 708 3 708 3 704 3 705 3 708 3 705 3 707 3 707 3 705 3 693 3 707 3 693 3 706 3 751 3 718 3 750 3 750 3 718 3 719 3 750 3 719 3 749 3 749 3 719 3 720 3 749 3 720 3 748 3 748 3 720 3 721 3 748 3 721 3 747 3 747 3 721 3 722 3 747 3 722 3 746 3 746 3 722 3 723 3 746 3 723 3 745 3 745 3 723 3 724 3 745 3 724 3 744 3 744 3 724 3 725 3 744 3 725 3 743 3 743 3 725 3 726 3 743 3 726 3 742 3 742 3 726 3 727 3 742 3 727 3 741 3 741 3 727 3 728 3 741 3 728 3 740 3 740 3 728 3 729 3 740 3 729 3 769 3 769 3 729 3 730 3 769 3 730 3 731 3 754 3 755 3 733 3 733 3 755 3 770 3 733 3 770 3 732 3 732 3 770 3 736 3 732 3 736 3 735 3 735 3 736 3 737 3 733 3 734 3 754 3 738 234 739 234 767 234 767 3 739 3 766 3 736 3 771 3 739 3 739 235 771 235 758 235 739 3 758 3 759 3 770 3 752 3 769 3 769 236 752 236 740 236 772 3 757 3 771 3 771 237 757 237 758 237 759 3 760 3 739 3 739 3 760 3 761 3 739 3 761 3 762 3 762 3 763 3 739 3 739 238 763 238 764 238 739 3 764 3 765 3 765 3 766 3 739 3 768 3 769 3 731 3 770 3 771 3 736 3 775 2 852 2 774 2 774 2 852 2 837 2 774 2 837 2 773 2 773 2 837 2 816 2 773 2 816 2 798 2 798 2 816 2 817 2 798 2 817 2 797 2 797 2 817 2 818 2 797 2 818 2 796 2 796 2 818 2 819 2 796 2 819 2 795 2 795 2 819 2 820 2 795 2 820 2 794 2 794 2 820 2 821 2 794 2 821 2 793 2 793 2 821 2 822 2 793 2 822 2 792 2 792 2 822 2 823 2 792 2 823 2 791 2 791 2 823 2 824 2 791 2 824 2 790 2 790 2 824 2 825 2 790 2 825 2 789 2 789 2 825 2 826 2 789 2 826 2 788 2 788 2 826 2 827 2 788 2 827 2 834 2 834 2 827 2 815 2 834 2 815 2 833 2 833 2 815 2 812 2 833 2 812 2 851 2 851 2 812 2 850 2 775 2 776 2 852 2 852 2 776 2 799 2 852 239 799 239 800 239 776 2 777 2 799 2 799 2 777 2 811 2 777 2 778 2 811 2 811 2 778 2 810 2 778 2 779 2 810 2 810 2 779 2 809 2 779 2 780 2 809 2 809 2 780 2 808 2 780 2 781 2 808 2 808 2 781 2 807 2 781 2 782 2 807 2 807 2 782 2 806 2 782 2 783 2 806 2 806 2 783 2 805 2 783 2 784 2 805 2 805 2 784 2 804 2 784 2 785 2 804 2 804 2 785 2 803 2 785 2 786 2 803 2 803 2 786 2 802 2 802 2 786 2 801 2 801 2 786 2 787 2 801 2 787 2 832 2 832 2 787 2 835 2 832 2 835 2 831 2 831 2 835 2 836 2 831 2 836 2 851 2 851 2 836 2 833 2 787 2 788 2 835 2 835 2 788 2 834 2 801 2 829 2 800 2 800 2 829 2 851 2 800 2 851 2 852 2 812 2 813 2 850 2 850 240 813 240 847 240 850 241 847 241 848 241 827 2 828 2 814 2 814 242 828 242 838 242 814 243 838 243 813 243 813 2 838 2 839 2 813 2 839 2 840 2 814 2 815 2 827 2 828 2 816 2 838 2 838 2 816 2 837 2 829 2 830 2 851 2 851 2 830 2 831 2 832 2 829 2 801 2 840 2 841 2 813 2 813 244 841 244 842 244 813 245 842 245 843 245 843 2 844 2 813 2 813 2 844 2 845 2 813 2 845 2 846 2 846 2 847 2 813 2 848 2 849 2 850 2 854 246 856 246 853 246 853 1 856 1 857 1 853 1 857 1 860 1 860 1 857 1 859 1 854 1 855 1 856 1 857 1 858 1 859 1 862 38 874 38 861 38 861 38 874 38 865 38 861 38 865 38 866 38 862 247 863 247 874 247 874 248 863 248 873 248 863 38 864 38 873 38 873 38 864 38 866 38 873 38 866 38 876 38 876 38 866 38 867 38 876 38 867 38 870 38 870 38 867 38 868 38 870 38 868 38 869 38 869 38 868 38 875 38 869 38 875 38 872 38 872 249 875 249 876 249 872 250 876 250 871 250 871 38 876 38 870 38 864 38 861 38 866 38 868 38 865 38 875 38 875 38 865 38 874 38 878 39 879 39 877 39 877 39 879 39 880 39 882 0 883 0 881 0 881 0 883 0 884 0</p>
        </triangles>
      </mesh>
    </geometry>
  </library_geometries>
  <library_controllers/>
  <library_visual_scenes>
    <visual_scene id="Scene" name="Scene">
      <node id="Camera" name="Camera" type="NODE">
        <matrix sid="transform">0.6859207 -0.3240135 0.6515582 7.481132 0.7276763 0.3054208 -0.6141704 -6.50764 0 0.8953956 0.4452714 5.343665 0 0 0 1</matrix>
        <instance_camera url="#Camera-camera"/>
      </node>
      <node id="Lamp" name="Lamp" type="NODE">
        <matrix sid="transform">-0.2908646 -0.7711008 0.5663932 4.076245 0.9551712 -0.1998834 0.2183912 1.005454 -0.05518906 0.6045247 0.7946723 5.903862 0 0 0 1</matrix>
        <instance_light url="#Lamp-light"/>
      </node>
      <node id="Lamp_001" name="Lamp_001" type="NODE">
        <matrix sid="transform">-0.2908646 -0.7711008 0.5663933 3.201399 0.9551712 -0.1998833 0.2183912 -2.716114 -0.05518906 0.6045247 0.7946723 4.889499 0 0 0 1</matrix>
        <instance_light url="#Lamp_001-light"/>
      </node>
      <node id="RexROV" name="RexROV" type="NODE">
        <matrix sid="transform">1 0 0 0 0 1 0 0 0 0 1 0 0 0 0 1</matrix>
        <node id="RexROV_ORG" name="RexROV_ORG" type="NODE">
          <matrix sid="transform">1 0 0 0 0 1 0 0 0 0 1 -0.05 0 0 0 1</matrix>
          <node id="ShapeIndexedFaceSet_024" name="ShapeIndexedFaceSet_024" type="NODE">
            <matrix sid="transform">0.9846154 0 0 0 0 -4.37196e-8 -1 0 0 1.000187 -4.37114e-8 -0.75 0 0 0 1</matrix>
            <instance_geometry url="#ShapeIndexedFaceSet_025-mesh" name="ShapeIndexedFaceSet_024">
              <bind_material>
                <technique_common>
                  <instance_material symbol="Shape_024-material" target="#Shape_024-material"/>
                </technique_common>
              </bind_material>
            </instance_geometry>
          </node>
        </node>
      </node>
    </visual_scene>
  </library_visual_scenes>
  <scene>
    <instance_visual_scene url="#Scene"/>
  </scene>
</COLLADA>